<svg width="400" height="400" viewBox="0 0 400 400" fill="none" xmlns="http://www.w3.org/2000/svg">
<circle cx="200" cy="200" r="199.75" stroke="#BABABC" stroke-width="0.5"/>
<g clip-path="url(#clip0)">
<path d="M372.948 334.129C383.503 328.092 387.166 314.64 381.128 304.085C375.091 293.53 361.639 289.868 351.084 295.906C340.529 301.943 336.867 315.394 342.905 325.949C348.942 336.504 362.393 340.167 372.948 334.129Z" fill="#F89F36"/>
<path opacity="0.1" d="M366.285 333.174C356.258 335.546 346.231 329.313 343.86 319.286C343.522 317.931 343.386 316.576 343.386 315.221C343.318 316.779 343.522 318.338 343.86 319.964C346.231 329.99 356.258 336.223 366.285 333.852C374.957 331.819 380.715 324.028 380.647 315.492C380.444 323.757 374.686 331.142 366.285 333.174Z" fill="white"/>
<path opacity="0.2" d="M357.748 298.217C367.774 295.913 377.801 302.078 380.172 312.105C380.443 313.325 380.646 314.476 380.646 315.696C380.714 314.07 380.579 312.376 380.172 310.75C377.801 300.723 367.774 294.558 357.748 296.862C348.94 298.962 343.046 306.956 343.385 315.696C343.724 307.498 349.415 300.249 357.748 298.217Z" fill="#383838"/>
<path d="M370.69 315.425C370.351 314.408 369.674 313.731 368.657 313.392C368.183 313.257 367.709 313.189 367.167 313.053C367.235 312.986 367.235 312.986 367.303 312.918C369.335 311.292 368.386 307.837 366.49 307.024C365.744 306.685 364.931 306.55 364.118 306.482C363.509 306.482 362.967 306.482 362.357 306.55C362.154 305.533 361.883 304.111 361.612 303.027L359.511 303.433C359.715 304.517 359.986 305.872 360.189 306.888C359.579 307.024 359.037 307.091 358.495 307.227C358.292 306.211 358.021 304.856 357.818 303.772L355.718 304.178C355.921 305.33 356.192 306.685 356.395 307.701C354.972 307.972 353.55 308.243 352.127 308.582C352.262 309.327 352.398 310.072 352.601 310.818C352.94 310.75 353.211 310.682 353.414 310.682C353.685 310.614 353.956 310.547 354.227 310.547C354.972 310.479 355.447 310.75 355.582 311.495C356.192 314.544 356.802 317.592 357.411 320.573C357.547 321.251 357.344 321.522 356.666 321.657C356.192 321.725 355.718 321.861 355.243 321.928C355.243 322.809 355.311 323.622 355.311 324.503C356.734 324.232 358.157 323.961 359.579 323.69C359.782 324.774 360.053 326.129 360.324 327.28L362.425 326.874C362.221 325.722 361.95 324.367 361.747 323.351C362.357 323.216 362.899 323.148 363.441 323.08C363.644 324.164 363.915 325.519 364.186 326.603L366.286 326.196C366.083 325.045 365.812 323.69 365.609 322.674C365.677 322.674 365.744 322.606 365.812 322.606C366.761 322.199 367.777 321.928 368.725 321.522C369.945 320.912 370.825 319.964 371.096 318.609C371.164 317.525 371.029 316.508 370.69 315.425ZM359.037 309.801C360.324 309.53 361.612 309.124 362.899 309.463C363.78 309.666 364.322 310.208 364.389 311.021C364.525 311.834 364.186 312.579 363.373 312.986C362.289 313.595 361.07 313.866 359.85 314.07C359.579 312.647 359.308 311.292 359.037 309.801ZM365.812 319.422C364.728 320.167 363.509 320.438 362.289 320.709C361.95 320.777 361.612 320.844 361.205 320.912C360.866 319.354 360.595 317.796 360.257 316.237C361.883 315.899 363.441 315.425 365.067 315.831C365.948 316.034 366.49 316.508 366.693 317.389C366.896 318.202 366.557 318.88 365.812 319.422Z" fill="white"/>
</g>
<defs>
<clipPath id="clip0">
<rect width="44.0362" height="44.0362" fill="white" transform="translate(340 293)"/>
</clipPath>
</defs>
</svg>
