<svg width="300" height="300" viewBox="0 0 300 300" fill="none" xmlns="http://www.w3.org/2000/svg">
<circle cx="150" cy="150" r="149.75" stroke="#BABABC" stroke-width="0.5"/>
<g clip-path="url(#clip0)">
<path d="M271.95 71.1291C282.505 65.0915 286.168 51.6405 280.13 41.0854C274.092 30.5303 260.641 26.8681 250.086 32.9057C239.531 38.9432 235.869 52.3943 241.907 62.9494C247.944 73.5045 261.395 77.1667 271.95 71.1291Z" fill="#6D75B6"/>
<path opacity="0.1" d="M279.06 56.6734C281.632 46.7101 275.639 36.5488 265.676 33.9774C255.713 31.4061 245.551 37.3985 242.98 47.3617C240.409 57.325 246.401 67.4863 256.364 70.0577C266.328 72.629 276.489 66.6366 279.06 56.6734Z" fill="#383838"/>
<path opacity="0.1" d="M265.287 70.1747C255.26 72.5459 245.233 66.313 242.862 56.2863C242.523 54.9314 242.388 53.5764 242.388 52.2214C242.32 53.7796 242.523 55.3378 242.862 56.9638C245.233 66.9905 255.26 73.2233 265.287 70.8522C273.959 68.8197 279.717 61.0287 279.649 52.4924C279.446 60.7577 273.688 68.1422 265.287 70.1747Z" fill="white"/>
<path opacity="0.2" d="M256.75 35.2165C266.776 32.9131 276.803 39.0782 279.174 49.1049C279.445 50.3244 279.648 51.4761 279.648 52.6955C279.716 51.0696 279.581 49.3759 279.174 47.7499C276.803 37.7232 266.776 31.5581 256.75 33.8616C247.942 35.9618 242.048 43.956 242.387 52.6955C242.726 44.498 248.416 37.249 256.75 35.2165Z" fill="#383838"/>
<path d="M261.357 58.1833V64.2129L268.81 53.7119L261.357 58.1833Z" fill="white"/>
<path d="M268.539 51.7471L261.357 39.8235V48.4952L268.539 51.7471Z" fill="white"/>
<path d="M261.357 49.1726V56.6249L268.471 52.4245L261.357 49.1726Z" fill="white"/>
<path d="M253.5 51.7471L260.681 39.8235V48.4952L253.5 51.7471Z" fill="white"/>
<path d="M260.68 49.1726V56.6249L253.566 52.4245L260.68 49.1726Z" fill="white"/>
<path d="M260.681 58.1833V64.2129L253.229 53.7119L260.681 58.1833Z" fill="white"/>
</g>
<path d="M73.5459 260.704C73.2157 259.073 72.6791 257.504 71.9774 256.038C70.9455 253.87 69.5627 251.888 67.8909 250.194C66.7764 249.079 65.5587 248.088 64.2172 247.242C63.9076 247.056 63.598 246.87 63.2885 246.684C61.8231 245.858 60.2545 245.198 58.6034 244.743C58.0462 244.599 57.4889 244.454 56.9111 244.351C56.3332 244.248 55.7553 244.165 55.1568 244.103C54.4138 244.041 53.6708 244 52.9071 244C52.1229 244 51.3386 244.041 50.5749 244.145C49.9971 244.206 49.4192 244.289 48.8619 244.413C40.5651 246.065 34.0639 252.59 32.4128 260.87C32.2889 261.427 32.2064 262.005 32.1445 262.583C32.0413 263.389 32 264.235 32 265.102C32 265.804 32.0413 266.486 32.1032 267.167C32.1651 267.766 32.2477 268.344 32.3509 268.922C32.4541 269.5 32.5985 270.058 32.743 270.615C33.1971 272.267 33.8575 273.837 34.683 275.303C34.8688 275.612 35.0545 275.922 35.2403 276.232C36.0865 277.574 37.0771 278.792 38.1916 279.907C39.884 281.58 41.8447 282.984 44.0324 283.995C45.4978 284.697 47.0663 285.214 48.6968 285.565C50.1209 285.854 51.5862 286.019 53.0929 285.998C53.9597 285.998 54.8265 285.936 55.6727 285.833C56.7459 285.689 57.8192 285.482 58.8305 285.172C65.7445 283.169 71.1725 277.739 73.1744 270.822C73.4634 269.789 73.6904 268.736 73.8349 267.663C73.9587 266.754 74 265.846 74 264.896C73.9794 263.471 73.8349 262.067 73.5459 260.704Z" fill="#21BF73"/>
<path d="M68.6205 264.999C68.6205 273.3 62.1812 280.072 54.0288 280.609C53.678 280.63 53.3271 280.65 52.9763 280.65C44.3286 280.65 37.332 273.651 37.332 264.999C37.332 256.348 44.3286 249.348 52.9763 249.348C53.3271 249.348 53.678 249.369 54.0288 249.389C62.1812 249.926 68.6205 256.719 68.6205 264.999Z" fill="#21BF73"/>
<path d="M60.3973 258.315V255.527H46.1914V258.334H49.4053C50.8126 258.334 51.9726 258.597 52.6953 259.294C52.9045 259.483 53.0566 259.709 53.1898 259.972H46.1914V262.779H53.456C53.0566 264.512 51.6303 265.19 49.6525 265.19H47.0852V268.128L52.372 274.739L52.8855 275.38H57.1834L54.7682 272.347L51.4021 268.109C54.2737 267.582 56.727 265.755 57.0312 262.76H60.3973V259.954H56.784C56.5368 259.181 56.2515 258.597 56.0423 258.39L56.1184 258.315H60.3973Z" fill="white"/>
<defs>
<clipPath id="clip0">
<rect width="44.0362" height="44.0362" fill="white" transform="translate(239 30)"/>
</clipPath>
</defs>
</svg>
