<svg width="45" height="45" viewBox="0 0 45 45" fill="none" xmlns="http://www.w3.org/2000/svg">
<g clip-path="url(#clip0)">
<path d="M33.3019 41.4607C43.857 35.4231 47.5192 21.972 41.4816 11.4169C35.444 0.861815 21.993 -2.80038 11.4379 3.2372C0.882782 9.27477 -2.77941 22.7258 3.25817 33.2809C9.29575 43.836 22.7468 47.4982 33.3019 41.4607Z" fill="#6D75B6"/>
<path opacity="0.1" d="M40.4118 27.0049C42.9832 17.0416 36.9908 6.88031 27.0275 4.30898C17.0643 1.73764 6.90293 7.73 4.3316 17.6933C1.76026 27.6566 7.75262 37.8179 17.7159 40.3892C27.6792 42.9605 37.8405 36.9682 40.4118 27.0049Z" fill="#383838"/>
<path opacity="0.1" d="M26.6384 40.5062C16.6117 42.8774 6.58496 36.6446 4.21378 26.6179C3.87504 25.2629 3.73954 23.9079 3.73954 22.553C3.6718 24.1112 3.87504 25.6694 4.21378 27.2953C6.58496 37.3221 16.6117 43.5549 26.6384 41.1837C35.3101 39.1513 41.0687 31.3602 41.001 22.824C40.7977 31.0892 35.0391 38.4738 26.6384 40.5062Z" fill="white"/>
<path opacity="0.2" d="M18.1011 5.54808C28.1278 3.24465 38.1545 9.40972 40.5257 19.4364C40.7967 20.6559 40.9999 21.8076 40.9999 23.0271C41.0677 21.4011 40.9322 19.7074 40.5257 18.0815C38.1545 8.05476 28.1278 1.88969 18.1011 4.19312C9.29382 6.29331 3.39974 14.2876 3.73848 23.0271C4.07722 14.8296 9.76806 7.58052 18.1011 5.54808Z" fill="#383838"/>
<path d="M22.709 28.5148V34.5444L30.1613 24.0435L22.709 28.5148Z" fill="white"/>
<path d="M29.8903 22.0787L22.709 10.155V18.8268L29.8903 22.0787Z" fill="white"/>
<path d="M22.709 19.5042V26.9564L29.8225 22.7561L22.709 19.5042Z" fill="white"/>
<path d="M14.8516 22.0787L22.0329 10.155V18.8268L14.8516 22.0787Z" fill="white"/>
<path d="M22.0315 19.5042V26.9564L14.918 22.7561L22.0315 19.5042Z" fill="white"/>
<path d="M22.0324 28.5148V34.5444L14.5801 24.0435L22.0324 28.5148Z" fill="white"/>
</g>
<defs>
<clipPath id="clip0">
<rect width="44.0362" height="44.0362" fill="white" transform="translate(0.351562 0.331543)"/>
</clipPath>
</defs>
</svg>
