<svg width="880" height="537" viewBox="0 0 880 537" fill="none" xmlns="http://www.w3.org/2000/svg">
<g filter="url(#filter0_d)">
<rect x="150" y="146" width="580" height="237" rx="5" fill="white"/>
</g>
<path d="M193 273.231L216.989 255.282L224.241 267.077L233.725 255.282H259.108L273.055 224L295.37 255.282L298.439 260.923L307.365 255.282L313.501 247.077L319.359 255.282L323.822 260.923L339.722 267.077L366.5 273.231H379.052L391.883 286.051L401.088 308.103L406.388 286.051L417.824 273.231L429.819 260.923H445.718L456.318 234.256L493.417 273.231L512.385 247.077L537.21 224L574.588 273.231L597.461 279.897L604.434 260.923L612.802 279.897L624.239 314.769L633.723 291.692L637.349 308.103L646.275 324V267.077L662.174 291.692V279.897L671.658 255.282L680.027 260.923V279.897L684.49 273.231H687" stroke="#F89F36" stroke-width="2"/>
<g clip-path="url(#clip0)">
<path d="M204.935 197.623C213.564 192.688 216.558 181.691 211.622 173.062C206.687 164.433 195.69 161.44 187.061 166.375C178.433 171.311 175.439 182.307 180.374 190.936C185.31 199.565 196.307 202.559 204.935 197.623Z" fill="#F89F36"/>
<path d="M203.087 182.333C202.811 181.502 202.257 180.948 201.426 180.671C201.038 180.56 200.651 180.505 200.207 180.394C200.263 180.339 200.263 180.339 200.318 180.283C201.98 178.954 201.204 176.129 199.654 175.465C199.044 175.188 198.38 175.077 197.715 175.022C197.217 175.022 196.774 175.022 196.275 175.077C196.109 174.246 195.887 173.083 195.666 172.197L193.949 172.529C194.115 173.416 194.337 174.523 194.503 175.354C194.004 175.465 193.561 175.52 193.118 175.631C192.952 174.8 192.731 173.693 192.564 172.806L190.847 173.139C191.014 174.08 191.235 175.188 191.401 176.019C190.238 176.24 189.075 176.462 187.912 176.739C188.023 177.348 188.134 177.957 188.3 178.566C188.577 178.511 188.798 178.456 188.964 178.456C189.186 178.4 189.407 178.345 189.629 178.345C190.238 178.289 190.626 178.511 190.737 179.12C191.235 181.613 191.734 184.105 192.232 186.542C192.343 187.096 192.177 187.317 191.623 187.428C191.235 187.483 190.847 187.594 190.46 187.649C190.46 188.369 190.515 189.034 190.515 189.754C191.678 189.533 192.841 189.311 194.004 189.089C194.171 189.976 194.392 191.083 194.614 192.025L196.331 191.693C196.164 190.751 195.943 189.643 195.777 188.813C196.275 188.702 196.718 188.646 197.161 188.591C197.327 189.477 197.549 190.585 197.771 191.471L199.487 191.139C199.321 190.197 199.1 189.089 198.934 188.259C198.989 188.259 199.044 188.203 199.1 188.203C199.875 187.871 200.706 187.649 201.481 187.317C202.478 186.819 203.198 186.043 203.42 184.936C203.475 184.049 203.364 183.219 203.087 182.333ZM193.561 177.736C194.614 177.514 195.666 177.182 196.718 177.459C197.438 177.625 197.881 178.068 197.937 178.733C198.047 179.397 197.771 180.006 197.106 180.339C196.22 180.837 195.223 181.059 194.226 181.225C194.004 180.062 193.783 178.954 193.561 177.736ZM199.1 185.6C198.214 186.209 197.217 186.431 196.22 186.653C195.943 186.708 195.666 186.763 195.334 186.819C195.057 185.545 194.835 184.271 194.558 182.997C195.887 182.72 197.161 182.333 198.491 182.665C199.211 182.831 199.654 183.219 199.82 183.939C199.986 184.603 199.709 185.157 199.1 185.6Z" fill="white"/>
</g>
<path d="M227.476 188H232.426C235.252 188 236.836 186.794 236.836 184.4V184.328C236.836 182.618 236.008 181.664 234.262 181.286C235.72 180.836 236.296 179.828 236.296 178.55V178.478C236.296 176.138 234.73 175.13 232.084 175.13H227.476V188ZM229.816 186.29V182.168H231.976C233.74 182.168 234.478 182.834 234.478 184.166V184.238C234.478 185.57 233.74 186.29 232.138 186.29H229.816ZM229.816 180.548V176.84H231.76C233.29 176.84 233.992 177.362 233.992 178.586V178.658C233.992 179.972 233.38 180.548 231.796 180.548H229.816ZM238.952 188H241.13V178.586H238.952V188ZM240.014 177.038C240.734 177.038 241.31 176.498 241.31 175.796C241.31 175.076 240.734 174.536 240.014 174.536C239.294 174.536 238.718 175.076 238.718 175.796C238.718 176.498 239.294 177.038 240.014 177.038ZM246.988 188.162C247.654 188.162 248.122 188.054 248.464 187.928V186.2C248.158 186.326 247.834 186.38 247.402 186.38C246.718 186.38 246.322 186.002 246.322 185.174V180.224H248.392V178.586H246.322V176.516H244.144V178.586H242.884V180.224H244.144V185.372C244.144 187.154 245.116 188.162 246.988 188.162ZM254.551 188.18C257.107 188.18 258.745 186.65 258.907 184.49H256.909C256.783 185.822 255.793 186.506 254.641 186.506C253.039 186.506 252.031 185.426 252.031 183.374V183.23C252.031 181.286 253.093 180.134 254.587 180.134C255.739 180.134 256.567 180.656 256.747 181.916H258.853C258.601 179.324 256.639 178.388 254.551 178.388C251.923 178.388 249.799 180.278 249.799 183.266V183.41C249.799 186.416 251.851 188.18 254.551 188.18ZM264.994 186.488C263.338 186.488 262.384 185.282 262.384 183.356V183.212C262.384 181.268 263.374 180.098 264.994 180.098C266.614 180.098 267.586 181.286 267.586 183.23V183.356C267.586 185.282 266.614 186.488 264.994 186.488ZM264.976 188.18C267.748 188.18 269.818 186.272 269.818 183.338V183.194C269.818 180.314 267.748 178.388 264.994 178.388C262.222 178.388 260.152 180.332 260.152 183.248V183.392C260.152 186.254 262.204 188.18 264.976 188.18ZM271.84 188H274.018V178.586H271.84V188ZM272.902 177.038C273.622 177.038 274.198 176.498 274.198 175.796C274.198 175.076 273.622 174.536 272.902 174.536C272.182 174.536 271.606 175.076 271.606 175.796C271.606 176.498 272.182 177.038 272.902 177.038ZM276.673 188H278.851V182.456C278.851 180.962 279.841 180.206 281.065 180.206C282.361 180.206 282.937 180.854 282.937 182.276V188H285.115V182.078C285.115 179.486 283.783 178.388 281.893 178.388C280.345 178.388 279.301 179.162 278.851 180.08V178.586H276.673V188ZM292.093 188H297.043C299.869 188 301.453 186.794 301.453 184.4V184.328C301.453 182.618 300.625 181.664 298.879 181.286C300.337 180.836 300.913 179.828 300.913 178.55V178.478C300.913 176.138 299.347 175.13 296.701 175.13H292.093V188ZM294.433 186.29V182.168H296.593C298.357 182.168 299.095 182.834 299.095 184.166V184.238C299.095 185.57 298.357 186.29 296.755 186.29H294.433ZM294.433 180.548V176.84H296.377C297.907 176.84 298.609 177.362 298.609 178.586V178.658C298.609 179.972 297.997 180.548 296.413 180.548H294.433ZM306.093 188H308.505V177.02H312.087V175.13H302.511V177.02H306.093V188ZM319.102 188.18C322.162 188.18 324.358 186.614 324.736 183.518H322.396C322.144 185.336 320.884 186.236 319.102 186.236C316.726 186.236 315.34 184.526 315.34 181.628V181.484C315.34 178.604 316.816 176.84 319.084 176.84C320.938 176.84 321.892 177.722 322.162 179.432H324.592C324.304 176.408 322.018 174.932 319.066 174.932C315.484 174.932 312.82 177.632 312.82 181.502V181.646C312.82 185.606 315.07 188.18 319.102 188.18Z" fill="#191A1F"/>
<line x1="150" y1="339.75" x2="730" y2="339.75" stroke="#D1D1D2" stroke-width="0.5"/>
<path d="M199.702 366.48H200.92V356.47H199.786L197.462 358.15V359.284L199.702 357.674V366.48ZM202.858 366.48H209.564V365.486H204.734L207.492 362.798C208.724 361.594 209.508 360.39 209.508 359.158C209.508 357.436 208.332 356.344 206.484 356.344C204.58 356.344 203.39 357.59 203.236 359.55H204.37C204.566 357.982 205.322 357.324 206.484 357.324C207.618 357.324 208.276 357.996 208.276 359.116C208.276 360.138 207.744 361.048 206.834 362.014L202.858 366.2V366.48ZM212.251 366.55C212.741 366.55 213.147 366.158 213.147 365.654C213.147 365.15 212.741 364.758 212.251 364.758C211.761 364.758 211.355 365.15 211.355 365.654C211.355 366.158 211.761 366.55 212.251 366.55ZM212.251 362.392C212.741 362.392 213.147 362 213.147 361.496C213.147 360.992 212.741 360.6 212.251 360.6C211.761 360.6 211.355 360.992 211.355 361.496C211.355 362 211.761 362.392 212.251 362.392ZM216.723 366.48H217.941V356.47H216.807L214.483 358.15V359.284L216.723 357.674V366.48ZM224.429 365.598C222.763 365.598 221.699 364.282 221.699 361.748V361.188C221.699 358.724 222.707 357.324 224.401 357.324C226.095 357.324 227.075 358.836 227.075 361.16V361.72C227.075 364.254 226.179 365.598 224.429 365.598ZM224.429 366.606C226.893 366.606 228.307 364.646 228.307 361.734V361.174C228.307 358.318 226.865 356.344 224.401 356.344C221.951 356.344 220.453 358.248 220.453 361.202V361.762C220.453 364.674 222.035 366.606 224.429 366.606ZM234.108 366.48H235.326V362.406H236.95C238.854 362.406 240.45 361.58 240.45 359.452V359.396C240.45 357.31 238.868 356.47 236.95 356.47H234.108V366.48ZM235.326 361.44V357.45H237.034C238.392 357.45 239.232 357.982 239.232 359.396V359.452C239.232 360.74 238.462 361.44 237.034 361.44H235.326ZM242.242 366.48H243.362V358.052L246.792 366.48H247.17L250.488 358.052V366.48H251.706V356.47H250.026L247.03 364.268L243.936 356.47H242.242V366.48Z" fill="#6B6C6F"/>
<path d="M338.06 366.606C340.132 366.606 341.616 365.514 341.616 363.694C341.616 362.308 340.86 361.482 339.684 361.174C340.594 360.796 341.266 360.124 341.266 358.99C341.266 357.604 340.16 356.344 338.256 356.344C336.352 356.344 335.05 357.646 334.98 359.228H336.044C336.17 358.094 337.01 357.338 338.256 357.338C339.474 357.338 340.076 358.066 340.076 359.018C340.076 360.11 339.502 360.726 338.2 360.726H337.5V361.748H338.256C339.67 361.748 340.37 362.406 340.37 363.694C340.37 364.87 339.656 365.626 338.088 365.626C336.506 365.626 335.792 364.716 335.68 363.526H334.56C334.63 365.276 335.932 366.606 338.06 366.606ZM344.493 366.55C344.983 366.55 345.389 366.158 345.389 365.654C345.389 365.15 344.983 364.758 344.493 364.758C344.003 364.758 343.597 365.15 343.597 365.654C343.597 366.158 344.003 366.55 344.493 366.55ZM344.493 362.392C344.983 362.392 345.389 362 345.389 361.496C345.389 360.992 344.983 360.6 344.493 360.6C344.003 360.6 343.597 360.992 343.597 361.496C343.597 362 344.003 362.392 344.493 362.392ZM350.46 366.606C352.532 366.606 354.016 365.514 354.016 363.694C354.016 362.308 353.26 361.482 352.084 361.174C352.994 360.796 353.666 360.124 353.666 358.99C353.666 357.604 352.56 356.344 350.656 356.344C348.752 356.344 347.45 357.646 347.38 359.228H348.444C348.57 358.094 349.41 357.338 350.656 357.338C351.874 357.338 352.476 358.066 352.476 359.018C352.476 360.11 351.902 360.726 350.6 360.726H349.9V361.748H350.656C352.07 361.748 352.77 362.406 352.77 363.694C352.77 364.87 352.056 365.626 350.488 365.626C348.906 365.626 348.192 364.716 348.08 363.526H346.96C347.03 365.276 348.332 366.606 350.46 366.606ZM358.784 366.606C360.688 366.606 362.214 365.318 362.214 363.204C362.214 361.16 360.898 359.886 359.106 359.886C358.154 359.886 357.468 360.194 357.062 360.572V357.52H361.682V356.47H356.054V361.832H356.502C357.034 361.23 357.706 360.866 358.868 360.866C360.142 360.866 360.968 361.79 360.968 363.204C360.968 364.716 360.128 365.626 358.77 365.626C357.244 365.626 356.81 364.87 356.614 363.778H355.452C355.592 365.416 356.628 366.606 358.784 366.606ZM368.031 366.48H369.249V362.406H370.873C372.777 362.406 374.373 361.58 374.373 359.452V359.396C374.373 357.31 372.791 356.47 370.873 356.47H368.031V366.48ZM369.249 361.44V357.45H370.957C372.315 357.45 373.155 357.982 373.155 359.396V359.452C373.155 360.74 372.385 361.44 370.957 361.44H369.249ZM376.166 366.48H377.286V358.052L380.716 366.48H381.094L384.412 358.052V366.48H385.63V356.47H383.95L380.954 364.268L377.86 356.47H376.166V366.48Z" fill="#6B6C6F"/>
<path d="M472.438 366.606C474.552 366.606 475.896 365.262 475.896 363.26C475.896 361.426 474.608 359.984 472.62 359.984C471.458 359.984 470.52 360.53 470.044 361.342C470.1 358.696 471.164 357.338 472.676 357.338C473.796 357.338 474.3 357.842 474.524 358.766H475.686C475.42 357.156 474.314 356.344 472.76 356.344C470.464 356.344 468.84 358.22 468.84 361.818V362.056C468.84 364.562 469.708 366.606 472.438 366.606ZM472.438 365.654C471.094 365.654 470.128 364.786 470.128 363.148C470.128 361.846 471.08 360.936 472.424 360.936C473.782 360.936 474.65 361.874 474.65 363.316C474.65 364.73 473.754 365.654 472.438 365.654ZM478.575 366.55C479.065 366.55 479.471 366.158 479.471 365.654C479.471 365.15 479.065 364.758 478.575 364.758C478.085 364.758 477.679 365.15 477.679 365.654C477.679 366.158 478.085 366.55 478.575 366.55ZM478.575 362.392C479.065 362.392 479.471 362 479.471 361.496C479.471 360.992 479.065 360.6 478.575 360.6C478.085 360.6 477.679 360.992 477.679 361.496C477.679 362 478.085 362.392 478.575 362.392ZM485.435 365.598C483.769 365.598 482.705 364.282 482.705 361.748V361.188C482.705 358.724 483.713 357.324 485.407 357.324C487.101 357.324 488.081 358.836 488.081 361.16V361.72C488.081 364.254 487.185 365.598 485.435 365.598ZM485.435 366.606C487.899 366.606 489.313 364.646 489.313 361.734V361.174C489.313 358.318 487.871 356.344 485.407 356.344C482.957 356.344 481.459 358.248 481.459 361.202V361.762C481.459 364.674 483.041 366.606 485.435 366.606ZM494.964 365.598C493.298 365.598 492.234 364.282 492.234 361.748V361.188C492.234 358.724 493.242 357.324 494.936 357.324C496.63 357.324 497.61 358.836 497.61 361.16V361.72C497.61 364.254 496.714 365.598 494.964 365.598ZM494.964 366.606C497.428 366.606 498.842 364.646 498.842 361.734V361.174C498.842 358.318 497.4 356.344 494.936 356.344C492.486 356.344 490.988 358.248 490.988 361.202V361.762C490.988 364.674 492.57 366.606 494.964 366.606ZM504.643 366.48H505.861V362.406H507.485C509.389 362.406 510.985 361.58 510.985 359.452V359.396C510.985 357.31 509.403 356.47 507.485 356.47H504.643V366.48ZM505.861 361.44V357.45H507.569C508.927 357.45 509.767 357.982 509.767 359.396V359.452C509.767 360.74 508.997 361.44 507.569 361.44H505.861ZM512.778 366.48H513.898V358.052L517.328 366.48H517.706L521.024 358.052V366.48H522.242V356.47H520.562L517.566 364.268L514.472 356.47H512.778V366.48Z" fill="#6B6C6F"/>
<path d="M609.256 366.606C610.95 366.606 612.7 365.612 612.7 363.61C612.7 362.322 611.944 361.454 610.782 361.034C611.706 360.628 612.322 359.928 612.322 358.92C612.322 357.352 610.81 356.344 609.256 356.344C607.716 356.344 606.176 357.324 606.176 358.948C606.176 359.928 606.736 360.684 607.688 361.048C606.624 361.426 605.798 362.294 605.798 363.638C605.798 365.626 607.618 366.606 609.256 366.606ZM609.256 365.612C608.094 365.612 607.044 364.912 607.044 363.596C607.044 362.266 608.094 361.58 609.284 361.58C610.474 361.58 611.454 362.252 611.454 363.568C611.454 364.898 610.488 365.612 609.256 365.612ZM609.298 360.614C608.276 360.614 607.408 360.012 607.408 358.962C607.408 357.926 608.22 357.296 609.256 357.296C610.292 357.296 611.09 357.968 611.09 358.934C611.09 359.998 610.362 360.614 609.298 360.614ZM615.411 366.55C615.901 366.55 616.307 366.158 616.307 365.654C616.307 365.15 615.901 364.758 615.411 364.758C614.921 364.758 614.515 365.15 614.515 365.654C614.515 366.158 614.921 366.55 615.411 366.55ZM615.411 362.392C615.901 362.392 616.307 362 616.307 361.496C616.307 360.992 615.901 360.6 615.411 360.6C614.921 360.6 614.515 360.992 614.515 361.496C614.515 362 614.921 362.392 615.411 362.392ZM622.808 366.48H623.998V364.38H625.384V363.386H623.998V356.47H622.374L617.796 363.988V364.38H622.808V366.48ZM619.336 363.386L622.808 357.394V363.386H619.336ZM627.661 366.48H628.907L632.659 356.638V356.47H626.065V357.45H631.147L627.661 366.48ZM637.938 366.48H639.156V362.406H640.78C642.684 362.406 644.28 361.58 644.28 359.452V359.396C644.28 357.31 642.698 356.47 640.78 356.47H637.938V366.48ZM639.156 361.44V357.45H640.864C642.222 357.45 643.062 357.982 643.062 359.396V359.452C643.062 360.74 642.292 361.44 640.864 361.44H639.156ZM646.073 366.48H647.193V358.052L650.623 366.48H651.001L654.319 358.052V366.48H655.537V356.47H653.857L650.861 364.268L647.767 356.47H646.073V366.48Z" fill="#6B6C6F"/>
<g filter="url(#filter1_d)">
<rect x="516" y="85" width="310" height="115" rx="5" fill="white"/>
<path d="M543.942 180.272H545.76V176.708H549.054V175.016H545.76V171.452H543.942V175.016H540.666V176.708H543.942V180.272ZM553.897 182H556.309V169.13H554.167L551.179 171.254V173.36L553.897 171.506V182ZM564.516 182.18C567.468 182.18 569.34 180.704 569.34 178.328C569.34 176.618 568.35 175.556 566.856 175.214C568.098 174.746 568.944 173.864 568.944 172.406C568.944 170.498 567.378 168.95 564.696 168.95C561.942 168.95 560.268 170.66 560.142 172.892H562.266C562.41 171.596 563.292 170.768 564.66 170.768C565.992 170.768 566.658 171.542 566.658 172.586C566.658 173.792 565.992 174.476 564.516 174.476H563.598V176.186H564.588C566.154 176.186 566.91 176.888 566.91 178.292C566.91 179.57 566.136 180.38 564.462 180.38C562.734 180.38 561.978 179.372 561.852 178.022H559.674C559.782 180.488 561.456 182.18 564.516 182.18ZM573.399 182.126C574.209 182.126 574.839 181.514 574.839 180.722C574.839 179.93 574.209 179.3 573.399 179.3C572.607 179.3 571.977 179.93 571.977 180.722C571.977 181.514 572.607 182.126 573.399 182.126ZM581.972 182.18C584.888 182.18 586.724 180.416 586.724 177.806C586.724 175.304 584.96 173.612 582.494 173.612C580.964 173.612 579.902 174.278 579.308 175.268C579.38 172.334 580.514 170.804 582.242 170.804C583.484 170.804 583.988 171.38 584.222 172.352H586.454C586.148 170.102 584.6 168.95 582.26 168.95C579.182 168.95 576.932 171.38 576.932 175.844V176.15C576.932 179.552 578.228 182.18 581.972 182.18ZM581.936 180.416C580.478 180.416 579.452 179.426 579.452 177.716C579.452 176.294 580.478 175.268 581.936 175.268C583.412 175.268 584.348 176.312 584.348 177.86C584.348 179.39 583.376 180.416 581.936 180.416ZM592.047 173.792C591.201 173.792 590.661 173.216 590.661 172.118C590.661 171.038 591.201 170.444 592.047 170.444C592.893 170.444 593.415 171.074 593.415 172.118C593.415 173.18 592.893 173.792 592.047 173.792ZM592.029 175.25C593.793 175.25 595.161 173.918 595.161 172.1C595.161 170.3 593.775 169.004 592.047 169.004C590.319 169.004 588.897 170.336 588.897 172.136C588.897 173.918 590.265 175.25 592.029 175.25ZM590.661 182H592.191L600.471 169.13H598.959L590.661 182ZM599.103 180.722C598.257 180.722 597.717 180.146 597.717 179.048C597.717 177.968 598.257 177.374 599.103 177.374C599.949 177.374 600.471 178.004 600.471 179.048C600.471 180.11 599.949 180.722 599.103 180.722ZM599.085 182.18C600.849 182.18 602.235 180.848 602.235 179.03C602.235 177.23 600.831 175.934 599.103 175.934C597.375 175.934 595.971 177.266 595.971 179.066C595.971 180.848 597.321 182.18 599.085 182.18Z" fill="#21BF73"/>
<path d="M543.294 115H545.706V102.13H543.564L540.576 104.254V106.36L543.294 104.506V115ZM553.306 115H558.256C561.082 115 562.666 113.794 562.666 111.4V111.328C562.666 109.618 561.838 108.664 560.092 108.286C561.55 107.836 562.126 106.828 562.126 105.55V105.478C562.126 103.138 560.56 102.13 557.914 102.13H553.306V115ZM555.646 113.29V109.168H557.806C559.57 109.168 560.308 109.834 560.308 111.166V111.238C560.308 112.57 559.57 113.29 557.968 113.29H555.646ZM555.646 107.548V103.84H557.59C559.12 103.84 559.822 104.362 559.822 105.586V105.658C559.822 106.972 559.21 107.548 557.626 107.548H555.646ZM567.306 115H569.718V104.02H573.3V102.13H563.724V104.02H567.306V115ZM580.315 115.18C583.375 115.18 585.571 113.614 585.949 110.518H583.609C583.357 112.336 582.097 113.236 580.315 113.236C577.939 113.236 576.553 111.526 576.553 108.628V108.484C576.553 105.604 578.029 103.84 580.297 103.84C582.151 103.84 583.105 104.722 583.375 106.432H585.805C585.517 103.408 583.231 101.932 580.279 101.932C576.697 101.932 574.033 104.632 574.033 108.502V108.646C574.033 112.606 576.283 115.18 580.315 115.18ZM591.538 111.67H599.35V110.032H591.538V111.67ZM591.538 108.322H599.35V106.666H591.538V108.322Z" fill="#A3A3A5"/>
<path d="M567.268 151.28C571.804 151.28 574.66 148.536 574.66 144.476C574.66 140.584 571.916 137.952 568.08 137.952C565.7 137.952 564.048 138.988 563.124 140.528C563.236 135.964 565 133.584 567.688 133.584C569.62 133.584 570.404 134.48 570.768 135.992H574.24C573.764 132.492 571.356 130.7 567.716 130.7C562.928 130.7 559.428 134.48 559.428 141.424V141.9C559.428 147.192 561.444 151.28 567.268 151.28ZM567.212 148.536C564.944 148.536 563.348 146.996 563.348 144.336C563.348 142.124 564.944 140.528 567.212 140.528C569.508 140.528 570.964 142.152 570.964 144.56C570.964 146.94 569.452 148.536 567.212 148.536ZM579.511 154.444L583.179 148.172L579.959 146.884L577.411 153.52L579.511 154.444ZM594.076 151.28C598.612 151.28 601.468 148.536 601.468 144.476C601.468 140.584 598.724 137.952 594.888 137.952C592.508 137.952 590.856 138.988 589.932 140.528C590.044 135.964 591.808 133.584 594.496 133.584C596.428 133.584 597.212 134.48 597.576 135.992H601.048C600.572 132.492 598.164 130.7 594.524 130.7C589.736 130.7 586.236 134.48 586.236 141.424V141.9C586.236 147.192 588.252 151.28 594.076 151.28ZM594.02 148.536C591.752 148.536 590.156 146.996 590.156 144.336C590.156 142.124 591.752 140.528 594.02 140.528C596.316 140.528 597.772 142.152 597.772 144.56C597.772 146.94 596.26 148.536 594.02 148.536ZM614.789 151H618.401V146.94H621.089V144.168H618.401V130.98H613.725L604.877 145.624V146.94H614.789V151ZM608.853 144.168L614.845 133.808V144.168H608.853ZM625.957 154.444L629.625 148.172L626.405 146.884L623.857 153.52L625.957 154.444ZM641.166 148.312C638.17 148.312 636.434 146.016 636.434 141.48V140.472C636.434 136.02 638.086 133.612 641.11 133.612C644.106 133.612 645.73 136.188 645.73 140.444V141.424C645.73 145.96 644.246 148.312 641.166 148.312ZM641.082 151.28C646.318 151.28 649.454 147.444 649.454 141.424V140.416C649.454 134.396 646.15 130.7 641.082 130.7C636.042 130.7 632.682 134.424 632.682 140.5V141.508C632.682 147.528 635.986 151.28 641.082 151.28ZM660.606 151.252C665.758 151.252 668.67 147.584 668.67 141.004V139.968C668.67 134.2 666.094 130.672 660.858 130.672C656.294 130.672 653.438 133.444 653.438 137.532C653.438 141.48 656.21 144.028 660.074 144.028C662.454 144.028 664.078 143.02 665.002 141.508C664.946 146.072 663.406 148.368 660.55 148.368C658.394 148.368 657.47 147.36 657.106 145.792H653.606C654.082 149.236 656.518 151.252 660.606 151.252ZM660.858 141.424C658.562 141.424 657.106 139.828 657.106 137.42C657.106 135.04 658.59 133.444 660.83 133.444C663.126 133.444 664.722 135.012 664.722 137.7C664.722 139.912 663.126 141.424 660.858 141.424ZM680.033 151.28C684.065 151.28 687.481 149.18 687.481 145.232C687.481 142.796 686.109 141.06 683.757 140.22C685.549 139.436 686.725 138.064 686.725 136.02C686.725 132.716 683.617 130.7 680.033 130.7C676.561 130.7 673.313 132.688 673.313 136.076C673.313 138.064 674.433 139.52 676.281 140.248C674.041 141.032 672.529 142.796 672.529 145.344C672.529 149.264 676.057 151.28 680.033 151.28ZM680.033 148.48C678.017 148.48 676.281 147.276 676.281 145.036C676.281 142.796 678.017 141.592 680.061 141.592C682.133 141.592 683.757 142.796 683.757 145.008C683.757 147.248 682.161 148.48 680.033 148.48ZM680.089 139.156C678.353 139.156 676.869 138.092 676.869 136.272C676.869 134.48 678.269 133.388 680.033 133.388C681.825 133.388 683.197 134.536 683.197 136.244C683.197 138.064 681.909 139.156 680.089 139.156ZM693.681 151.196C694.941 151.196 695.921 150.244 695.921 149.012C695.921 147.78 694.941 146.8 693.681 146.8C692.449 146.8 691.469 147.78 691.469 149.012C691.469 150.244 692.449 151.196 693.681 151.196ZM707.016 151.28C711.552 151.28 714.408 148.536 714.408 144.476C714.408 140.584 711.664 137.952 707.828 137.952C705.448 137.952 703.796 138.988 702.872 140.528C702.984 135.964 704.748 133.584 707.436 133.584C709.368 133.584 710.152 134.48 710.516 135.992H713.988C713.512 132.492 711.104 130.7 707.464 130.7C702.676 130.7 699.176 134.48 699.176 141.424V141.9C699.176 147.192 701.192 151.28 707.016 151.28ZM706.96 148.536C704.692 148.536 703.096 146.996 703.096 144.336C703.096 142.124 704.692 140.528 706.96 140.528C709.256 140.528 710.712 142.152 710.712 144.56C710.712 146.94 709.2 148.536 706.96 148.536ZM725.605 151.28C729.637 151.28 733.053 149.18 733.053 145.232C733.053 142.796 731.681 141.06 729.329 140.22C731.121 139.436 732.297 138.064 732.297 136.02C732.297 132.716 729.189 130.7 725.605 130.7C722.133 130.7 718.885 132.688 718.885 136.076C718.885 138.064 720.005 139.52 721.853 140.248C719.613 141.032 718.101 142.796 718.101 145.344C718.101 149.264 721.629 151.28 725.605 151.28ZM725.605 148.48C723.589 148.48 721.853 147.276 721.853 145.036C721.853 142.796 723.589 141.592 725.633 141.592C727.705 141.592 729.329 142.796 729.329 145.008C729.329 147.248 727.733 148.48 725.605 148.48ZM725.661 139.156C723.925 139.156 722.441 138.092 722.441 136.272C722.441 134.48 723.841 133.388 725.605 133.388C727.397 133.388 728.769 134.536 728.769 136.244C728.769 138.064 727.481 139.156 725.661 139.156Z" fill="#191A1F"/>
<path d="M553.002 134.625C552.934 134.557 552.847 134.523 552.741 134.523H550.798C550.669 133.894 550.427 133.349 550.071 132.886H552.718C552.825 132.886 552.912 132.852 552.98 132.784C553.048 132.716 553.082 132.629 553.082 132.523V131.364C553.082 131.258 553.048 131.17 552.98 131.102C552.912 131.034 552.825 131 552.718 131H543.264C543.158 131 543.071 131.034 543.003 131.102C542.935 131.17 542.9 131.257 542.9 131.364V132.875C542.9 132.973 542.936 133.059 543.008 133.131C543.08 133.203 543.166 133.238 543.264 133.238H544.912C546.51 133.238 547.525 133.666 547.957 134.523H543.264C543.158 134.523 543.071 134.557 543.003 134.625C542.935 134.693 542.9 134.78 542.9 134.886V136.045C542.9 136.151 542.934 136.238 543.003 136.306C543.071 136.375 543.158 136.409 543.264 136.409H548.116C547.95 137.03 547.561 137.503 546.951 137.829C546.341 138.155 545.537 138.318 544.537 138.318H543.264C543.166 138.318 543.08 138.354 543.008 138.426C542.936 138.498 542.9 138.583 542.9 138.682V140.125C542.9 140.223 542.934 140.307 543.003 140.375C544.457 141.92 546.343 144.083 548.662 146.863C548.73 146.954 548.825 147 548.946 147H551.162C551.321 147 551.431 146.932 551.491 146.795C551.567 146.659 551.552 146.53 551.446 146.409C549.234 143.697 547.495 141.666 546.23 140.318C547.518 140.166 548.563 139.75 549.366 139.068C550.169 138.386 550.658 137.5 550.832 136.409H552.741C552.847 136.409 552.934 136.375 553.002 136.307C553.071 136.239 553.105 136.152 553.105 136.045V134.886C553.105 134.78 553.071 134.693 553.002 134.625Z" fill="#191A1F"/>
</g>
<g filter="url(#filter2_d)">
<rect x="76" y="337" width="310" height="115" rx="5" fill="white"/>
<path d="M99.008 429.878H103.328V428.078H99.008V429.878ZM111.618 432.272C109.692 432.272 108.576 430.796 108.576 427.88V427.232C108.576 424.37 109.638 422.822 111.582 422.822C113.508 422.822 114.552 424.478 114.552 427.214V427.844C114.552 430.76 113.598 432.272 111.618 432.272ZM111.564 434.18C114.93 434.18 116.946 431.714 116.946 427.844V427.196C116.946 423.326 114.822 420.95 111.564 420.95C108.324 420.95 106.164 423.344 106.164 427.25V427.898C106.164 431.768 108.288 434.18 111.564 434.18ZM120.462 434.126C121.272 434.126 121.902 433.514 121.902 432.722C121.902 431.93 121.272 431.3 120.462 431.3C119.67 431.3 119.04 431.93 119.04 432.722C119.04 433.514 119.67 434.126 120.462 434.126ZM129.035 434.18C131.951 434.18 133.787 432.416 133.787 429.806C133.787 427.304 132.023 425.612 129.557 425.612C128.027 425.612 126.965 426.278 126.371 427.268C126.443 424.334 127.577 422.804 129.305 422.804C130.547 422.804 131.051 423.38 131.285 424.352H133.517C133.211 422.102 131.663 420.95 129.323 420.95C126.245 420.95 123.995 423.38 123.995 427.844V428.15C123.995 431.552 125.291 434.18 129.035 434.18ZM128.999 432.416C127.541 432.416 126.515 431.426 126.515 429.716C126.515 428.294 127.541 427.268 128.999 427.268C130.475 427.268 131.411 428.312 131.411 429.86C131.411 431.39 130.439 432.416 128.999 432.416ZM139.11 425.792C138.264 425.792 137.724 425.216 137.724 424.118C137.724 423.038 138.264 422.444 139.11 422.444C139.956 422.444 140.478 423.074 140.478 424.118C140.478 425.18 139.956 425.792 139.11 425.792ZM139.092 427.25C140.856 427.25 142.224 425.918 142.224 424.1C142.224 422.3 140.838 421.004 139.11 421.004C137.382 421.004 135.96 422.336 135.96 424.136C135.96 425.918 137.328 427.25 139.092 427.25ZM137.724 434H139.254L147.534 421.13H146.022L137.724 434ZM146.166 432.722C145.32 432.722 144.78 432.146 144.78 431.048C144.78 429.968 145.32 429.374 146.166 429.374C147.012 429.374 147.534 430.004 147.534 431.048C147.534 432.11 147.012 432.722 146.166 432.722ZM146.148 434.18C147.912 434.18 149.298 432.848 149.298 431.03C149.298 429.23 147.894 427.934 146.166 427.934C144.438 427.934 143.034 429.266 143.034 431.066C143.034 432.848 144.384 434.18 146.148 434.18Z" fill="#FF512B"/>
<path d="M101.294 367H103.706V354.13H101.564L98.576 356.254V358.36L101.294 356.506V367ZM111.306 367H116.256C119.082 367 120.666 365.794 120.666 363.4V363.328C120.666 361.618 119.838 360.664 118.092 360.286C119.55 359.836 120.126 358.828 120.126 357.55V357.478C120.126 355.138 118.56 354.13 115.914 354.13H111.306V367ZM113.646 365.29V361.168H115.806C117.57 361.168 118.308 361.834 118.308 363.166V363.238C118.308 364.57 117.57 365.29 115.968 365.29H113.646ZM113.646 359.548V355.84H115.59C117.12 355.84 117.822 356.362 117.822 357.586V357.658C117.822 358.972 117.21 359.548 115.626 359.548H113.646ZM125.306 367H127.718V356.02H131.3V354.13H121.724V356.02H125.306V367ZM138.315 367.18C141.375 367.18 143.571 365.614 143.949 362.518H141.609C141.357 364.336 140.097 365.236 138.315 365.236C135.939 365.236 134.553 363.526 134.553 360.628V360.484C134.553 357.604 136.029 355.84 138.297 355.84C140.151 355.84 141.105 356.722 141.375 358.432H143.805C143.517 355.408 141.231 353.932 138.279 353.932C134.697 353.932 132.033 356.632 132.033 360.502V360.646C132.033 364.606 134.283 367.18 138.315 367.18ZM149.538 363.67H157.35V362.032H149.538V363.67ZM149.538 360.322H157.35V358.666H149.538V360.322Z" fill="#A3A3A5"/>
<path d="M121.456 403.252C126.608 403.252 129.52 399.584 129.52 393.004V391.968C129.52 386.2 126.944 382.672 121.708 382.672C117.144 382.672 114.288 385.444 114.288 389.532C114.288 393.48 117.06 396.028 120.924 396.028C123.304 396.028 124.928 395.02 125.852 393.508C125.796 398.072 124.256 400.368 121.4 400.368C119.244 400.368 118.32 399.36 117.956 397.792H114.456C114.932 401.236 117.368 403.252 121.456 403.252ZM121.708 393.424C119.412 393.424 117.956 391.828 117.956 389.42C117.956 387.04 119.44 385.444 121.68 385.444C123.976 385.444 125.572 387.012 125.572 389.7C125.572 391.912 123.976 393.424 121.708 393.424ZM133.718 406.444L137.386 400.172L134.166 398.884L131.618 405.52L133.718 406.444ZM143.428 403H147.18V382.98H143.848L139.2 386.284V389.56L143.428 386.676V403ZM160.226 403.28C164.258 403.28 167.674 401.18 167.674 397.232C167.674 394.796 166.302 393.06 163.95 392.22C165.742 391.436 166.918 390.064 166.918 388.02C166.918 384.716 163.81 382.7 160.226 382.7C156.754 382.7 153.506 384.688 153.506 388.076C153.506 390.064 154.626 391.52 156.474 392.248C154.234 393.032 152.722 394.796 152.722 397.344C152.722 401.264 156.25 403.28 160.226 403.28ZM160.226 400.48C158.21 400.48 156.474 399.276 156.474 397.036C156.474 394.796 158.21 393.592 160.254 393.592C162.326 393.592 163.95 394.796 163.95 397.008C163.95 399.248 162.354 400.48 160.226 400.48ZM160.282 391.156C158.546 391.156 157.062 390.092 157.062 388.272C157.062 386.48 158.462 385.388 160.226 385.388C162.018 385.388 163.39 386.536 163.39 388.244C163.39 390.064 162.102 391.156 160.282 391.156ZM170.672 403H185.148V400.116H176.636L181.088 395.776C183.468 393.48 185.008 391.212 185.008 388.608C185.008 385.08 182.544 382.7 178.4 382.7C174.172 382.7 171.54 385.22 171.288 389.588H174.704C175.04 386.76 176.3 385.612 178.288 385.612C180.22 385.612 181.284 386.788 181.284 388.664C181.284 390.568 180.136 392.332 178.232 394.348L170.672 402.328V403ZM191.735 403.196C192.995 403.196 193.975 402.244 193.975 401.012C193.975 399.78 192.995 398.8 191.735 398.8C190.503 398.8 189.523 399.78 189.523 401.012C189.523 402.244 190.503 403.196 191.735 403.196ZM200.215 403H203.967V382.98H200.635L195.987 386.284V389.56L200.215 386.676V403ZM216.541 403.252C221.693 403.252 224.605 399.584 224.605 393.004V391.968C224.605 386.2 222.029 382.672 216.793 382.672C212.229 382.672 209.373 385.444 209.373 389.532C209.373 393.48 212.145 396.028 216.009 396.028C218.389 396.028 220.013 395.02 220.937 393.508C220.881 398.072 219.341 400.368 216.485 400.368C214.329 400.368 213.405 399.36 213.041 397.792H209.541C210.017 401.236 212.453 403.252 216.541 403.252ZM216.793 393.424C214.497 393.424 213.041 391.828 213.041 389.42C213.041 387.04 214.525 385.444 216.765 385.444C219.061 385.444 220.657 387.012 220.657 389.7C220.657 391.912 219.061 393.424 216.793 393.424Z" fill="#191A1F"/>
<path d="M103.148 397.43H104.354V395.162C107 394.982 108.566 393.308 108.566 391.202C108.566 388.772 107.018 387.872 104.354 387.44V383.75C105.452 383.93 106.01 384.56 106.208 385.658H108.332C108.116 383.426 106.676 382.22 104.354 382.004V380.366H103.148V381.986C100.7 382.148 99.098 383.642 99.098 385.64C99.098 387.926 100.484 388.898 103.148 389.348V393.398C101.438 393.182 101.042 392.192 100.898 391.022H98.666C98.846 393.2 100.07 394.946 103.148 395.162V397.43ZM106.352 391.418C106.352 392.48 105.56 393.236 104.354 393.398V389.546C105.92 389.888 106.352 390.392 106.352 391.418ZM101.222 385.442C101.222 384.542 101.906 383.84 103.148 383.696V387.242C101.564 386.918 101.222 386.378 101.222 385.442Z" fill="#191A1F"/>
</g>
<defs>
<filter id="filter0_d" x="0" y="0" width="880" height="537" filterUnits="userSpaceOnUse" color-interpolation-filters="sRGB">
<feFlood flood-opacity="0" result="BackgroundImageFix"/>
<feColorMatrix in="SourceAlpha" type="matrix" values="0 0 0 0 0 0 0 0 0 0 0 0 0 0 0 0 0 0 127 0"/>
<feOffset dy="4"/>
<feGaussianBlur stdDeviation="75"/>
<feColorMatrix type="matrix" values="0 0 0 0 0 0 0 0 0 0 0 0 0 0 0 0 0 0 0.04 0"/>
<feBlend mode="normal" in2="BackgroundImageFix" result="effect1_dropShadow"/>
<feBlend mode="normal" in="SourceGraphic" in2="effect1_dropShadow" result="shape"/>
</filter>
<filter id="filter1_d" x="496" y="69" width="350" height="155" filterUnits="userSpaceOnUse" color-interpolation-filters="sRGB">
<feFlood flood-opacity="0" result="BackgroundImageFix"/>
<feColorMatrix in="SourceAlpha" type="matrix" values="0 0 0 0 0 0 0 0 0 0 0 0 0 0 0 0 0 0 127 0"/>
<feOffset dy="4"/>
<feGaussianBlur stdDeviation="10"/>
<feColorMatrix type="matrix" values="0 0 0 0 0.0980392 0 0 0 0 0.101961 0 0 0 0 0.121569 0 0 0 0.05 0"/>
<feBlend mode="normal" in2="BackgroundImageFix" result="effect1_dropShadow"/>
<feBlend mode="normal" in="SourceGraphic" in2="effect1_dropShadow" result="shape"/>
</filter>
<filter id="filter2_d" x="56" y="321" width="350" height="155" filterUnits="userSpaceOnUse" color-interpolation-filters="sRGB">
<feFlood flood-opacity="0" result="BackgroundImageFix"/>
<feColorMatrix in="SourceAlpha" type="matrix" values="0 0 0 0 0 0 0 0 0 0 0 0 0 0 0 0 0 0 127 0"/>
<feOffset dy="4"/>
<feGaussianBlur stdDeviation="10"/>
<feColorMatrix type="matrix" values="0 0 0 0 0.0980392 0 0 0 0 0.101961 0 0 0 0 0.121569 0 0 0 0.05 0"/>
<feBlend mode="normal" in2="BackgroundImageFix" result="effect1_dropShadow"/>
<feBlend mode="normal" in="SourceGraphic" in2="effect1_dropShadow" result="shape"/>
</filter>
<clipPath id="clip0">
<rect x="178" y="164" width="36" height="36" rx="10" fill="white"/>
</clipPath>
</defs>
</svg>
