<svg width="681" height="427" viewBox="0 0 681 427" fill="none" xmlns="http://www.w3.org/2000/svg">
<g clip-path="url(#clip0)">
<path d="M32.2056 182.429C32.2056 182.429 23.8302 181.83 24.6279 200.512C25.4256 219.195 27.32 229.185 27.32 229.185C27.32 229.185 27.1206 233.381 23.8302 232.482C20.6396 231.683 14.5575 227.587 11.5663 230.684C8.47534 233.781 9.57211 238.576 13.6601 244.271C17.7481 249.966 26.3229 262.654 27.0209 263.853C27.8185 264.952 28.1177 267.15 25.8244 266.95C23.5311 266.75 8.17621 261.555 6.18207 268.948C4.18793 276.441 18.1469 290.228 19.6425 291.827C21.1381 293.325 21.2379 294.324 20.6396 295.323C20.0414 296.222 15.056 294.025 10.5692 292.726C6.18207 291.427 0.797883 290.728 0.000225961 295.123C-0.797431 299.519 5.38441 312.407 28.4168 325.895L39.4843 331.489L50.0532 324.796C71.6897 309.01 76.5753 295.623 75.2791 291.327C73.9829 287.031 68.7982 288.33 64.5108 290.028C60.2234 291.727 55.5371 294.524 54.8392 293.625C54.1412 292.726 54.1412 291.727 55.4374 290.128C56.7336 288.43 69.2967 273.244 66.6046 266.051C63.8128 258.857 49.0562 265.551 46.8626 266.051C44.669 266.45 44.669 264.352 45.367 263.153C45.9652 261.955 53.2439 248.367 56.7336 242.373C60.2234 236.379 60.8216 231.483 57.4316 228.686C54.1412 225.988 48.5576 230.584 45.4667 231.783C42.3758 232.882 41.6778 228.786 41.6778 228.786C41.6778 228.786 42.5752 218.695 41.4784 200.013C40.3816 181.33 31.9065 182.829 31.9065 182.829" fill="#EBEBEB"/>
<path d="M32.8047 199.213C32.8047 199.213 32.8047 199.313 32.8047 199.613C32.8047 199.913 32.9044 200.312 32.9044 200.712C33.0041 201.711 33.1038 203.21 33.2035 205.108C33.5026 208.904 33.8018 214.499 34.2006 221.393C34.9982 235.18 35.8956 254.162 36.793 275.042C37.6903 296.023 38.5877 315.005 39.1859 328.792C39.4851 335.686 39.7842 341.18 39.9836 345.077C40.0833 346.975 40.183 348.474 40.183 349.473C40.183 349.972 40.183 350.372 40.183 350.672C40.183 350.971 40.183 351.071 40.183 351.071C40.183 351.071 40.183 350.971 40.183 350.672C40.183 350.372 40.0833 349.972 40.0833 349.573C39.9836 348.573 39.8839 347.075 39.7842 345.177C39.4851 341.38 39.1859 335.785 38.7871 328.892C37.9895 315.105 37.0921 296.123 36.1947 275.142C35.2974 254.162 34.4 235.18 33.8018 221.393C33.5026 214.499 33.2035 209.004 33.0041 205.108C32.9044 203.21 32.8047 201.711 32.8047 200.712C32.8047 200.212 32.8047 199.813 32.8047 199.513C32.8047 199.313 32.8047 199.213 32.8047 199.213Z" fill="#E0E0E0"/>
<path d="M19.8418 236.778C19.8418 236.778 20.1409 236.978 20.5397 237.378C20.9386 237.777 21.5368 238.377 22.3345 239.076C23.8301 240.575 25.7245 242.573 27.9181 244.871C30.0119 247.168 31.9064 249.266 33.402 250.865C34.0999 251.564 34.5985 252.164 35.097 252.663C35.4958 253.063 35.6952 253.363 35.6952 253.363C35.6952 253.363 35.3961 253.163 34.9973 252.763C34.5985 252.364 34.0002 251.764 33.2026 251.065C31.707 249.566 29.8125 247.468 27.7187 245.17C25.6248 242.872 23.7304 240.874 22.2348 239.276C21.5368 238.577 21.0383 237.977 20.5397 237.478C20.0412 236.978 19.8418 236.778 19.8418 236.778Z" fill="#E0E0E0"/>
<path d="M36.5936 252.963C36.4939 252.863 40.5819 248.567 45.6669 243.472C50.752 238.277 54.9397 234.181 55.0394 234.28C55.1391 234.38 51.0511 238.676 45.9661 243.772C40.881 248.867 36.6933 253.063 36.5936 252.963Z" fill="#E0E0E0"/>
<path d="M36.5918 285.233C36.5918 285.233 36.8909 285.033 37.3895 284.733C37.9877 284.434 38.6856 284.034 39.583 283.534C41.3777 282.535 43.9701 281.037 46.6622 279.338C49.3543 277.64 51.847 276.041 53.542 274.843C54.3397 274.343 55.0376 273.843 55.6359 273.444C56.1344 273.144 56.4335 272.944 56.4335 272.944C56.4335 272.944 56.2341 273.144 55.7356 273.544C55.237 273.943 54.6388 274.443 53.7414 275.042C52.0464 276.241 49.6534 277.94 46.8616 279.638C44.0698 281.336 41.5772 282.735 39.6827 283.734C38.7854 284.234 37.9877 284.633 37.4892 284.833C36.8909 285.133 36.5918 285.233 36.5918 285.233Z" fill="#E0E0E0"/>
<path d="M18.1465 273.943C18.1465 273.943 18.4456 274.043 18.9441 274.343C19.4427 274.643 20.1406 274.942 20.9383 275.442C22.6333 276.441 24.9266 277.74 27.519 279.238C30.1113 280.737 32.4046 282.136 33.9999 283.235C34.7976 283.734 35.4955 284.134 35.9941 284.434C36.4926 284.733 36.692 284.933 36.692 284.933C36.692 284.933 36.3929 284.833 35.8944 284.533C35.3958 284.234 34.6979 283.934 33.9002 283.434C32.2052 282.435 29.9119 281.137 27.3195 279.638C24.7272 278.139 22.4339 276.741 20.8386 275.642C20.0409 275.142 19.343 274.743 18.8444 274.443C18.4456 274.143 18.1465 273.943 18.1465 273.943Z" fill="#E0E0E0"/>
<path d="M14.5566 302.417C14.5566 302.417 14.9555 302.517 15.5537 302.916C16.2517 303.316 17.149 303.815 18.1461 304.315C20.3397 305.514 23.3309 307.212 26.6212 309.21C29.9115 311.108 32.9028 312.907 34.9966 314.206C35.9937 314.805 36.891 315.305 37.4893 315.704C38.0875 316.104 38.3867 316.304 38.3867 316.304C38.3867 316.304 37.9878 316.204 37.3896 315.804C36.6916 315.404 35.7943 314.905 34.7972 314.405C32.6036 313.207 29.6124 311.508 26.3221 309.51C23.0317 307.612 20.0405 305.813 17.9467 304.515C16.9496 303.915 16.0522 303.416 15.454 303.016C14.8558 302.616 14.5566 302.417 14.5566 302.417Z" fill="#E0E0E0"/>
<path d="M37.8887 315.804C37.8887 315.804 38.1878 315.504 38.8857 315.205C39.5837 314.805 40.4811 314.206 41.5778 313.606C43.8711 312.208 46.962 310.309 50.4518 308.011C53.8418 305.814 56.9327 303.715 59.1263 302.117C60.1234 301.418 61.0207 300.818 61.7187 300.319C62.3169 299.919 62.7158 299.719 62.7158 299.719C62.7158 299.719 62.4166 300.019 61.8184 300.518C61.2201 301.018 60.4225 301.617 59.3257 302.417C57.1322 304.015 54.1409 306.113 50.7509 308.411C47.3609 310.609 44.1702 312.507 41.877 313.906C40.6805 314.605 39.7831 315.105 39.0852 315.405C38.2875 315.704 37.8887 315.804 37.8887 315.804Z" fill="#E0E0E0"/>
<path d="M54.5399 335.086H23.8301L33.9005 411.215H44.5692L54.5399 335.086Z" fill="#E0E0E0"/>
<path d="M25.4258 344.377C25.4258 344.377 25.4258 344.477 25.6252 344.677C25.7249 344.877 26.024 345.077 26.3231 345.177C27.0211 345.476 28.3173 345.476 29.6135 344.777C30.81 344.078 31.9067 342.779 33.6018 342.179C35.2968 341.58 37.2909 341.68 39.2851 342.279C41.2792 342.879 42.9742 343.878 44.5696 344.877C46.1649 345.776 47.5608 346.675 48.857 347.175C50.1532 347.774 51.2499 347.974 52.0476 348.074C52.4464 348.174 52.7455 348.174 52.945 348.174C53.1444 348.174 53.2441 348.174 53.2441 348.174C53.2441 348.074 51.5491 348.074 49.0564 346.875C47.8599 346.276 46.464 345.476 44.8687 344.477C43.3731 343.478 41.5783 342.479 39.4845 341.88C37.4903 341.18 35.2968 341.08 33.5021 341.78C32.6047 342.08 31.9067 342.679 31.2088 343.179C30.6106 343.678 30.0123 344.178 29.4141 344.577C28.3173 345.277 27.1208 345.376 26.4229 345.077C25.7249 344.777 25.4258 344.377 25.4258 344.377Z" fill="#F5F5F5"/>
<path d="M26.5215 358.464C26.5215 358.464 26.7209 358.164 27.2194 357.665C27.718 357.165 28.5156 356.566 29.7121 356.066C30.9086 355.667 32.3045 355.367 33.9995 355.467C35.6945 355.567 37.4893 355.867 39.3837 356.166C41.2781 356.466 43.1726 356.666 44.8676 356.366C46.5626 356.166 48.0582 355.667 49.155 355.167C50.3515 354.668 51.1492 354.068 51.7474 353.669C52.3456 353.269 52.5451 352.969 52.5451 352.969C52.4454 352.869 51.3486 353.968 48.9556 354.967C47.7591 355.467 46.3632 355.867 44.7679 356.066C43.1726 356.266 41.2781 356.166 39.3837 355.767C37.4893 355.467 35.6945 355.067 33.9995 355.067C32.3045 355.067 30.8089 355.367 29.6124 355.867C28.4159 356.366 27.6183 357.066 27.1197 357.665C26.9203 357.965 26.7209 358.165 26.6212 358.364C26.5215 358.364 26.5215 358.364 26.5215 358.464Z" fill="#F5F5F5"/>
<path d="M51.0497 365.957C51.0497 365.957 50.7506 365.757 50.2521 365.558C49.6538 365.358 48.7565 365.058 47.6597 365.058C46.5629 364.958 45.2667 365.058 43.7711 365.258C42.3752 365.458 40.7799 365.857 39.1846 366.257C37.5893 366.557 35.994 366.856 34.5981 366.756C33.2022 366.756 31.906 366.357 31.0086 365.957C29.0145 365.058 28.3165 363.859 28.2168 363.859C28.2168 363.859 28.3165 364.159 28.7153 364.658C29.1142 365.158 29.8121 365.757 30.8092 366.257C31.8063 366.756 33.1024 367.156 34.5981 367.156C36.0937 367.256 37.689 367.056 39.2843 366.656C40.8796 366.357 42.4749 365.857 43.8708 365.657C45.2667 365.358 46.5629 365.258 47.6597 365.358C49.8533 365.358 51.0497 366.057 51.0497 365.957Z" fill="#F5F5F5"/>
<path d="M29.2148 376.447C29.2148 376.547 30.3116 375.748 32.2061 376.148C33.1034 376.347 34.2002 376.747 35.297 377.346C36.4935 377.846 37.8894 378.346 39.385 378.445C42.3762 378.745 45.0683 377.746 46.7633 376.747C47.561 376.247 48.1592 375.748 48.558 375.348C48.9569 374.949 49.1563 374.749 49.0566 374.649C48.9569 374.549 48.1592 375.448 46.4642 376.447C44.7692 377.346 42.1768 378.246 39.2853 377.946C36.3938 377.746 34.1005 376.048 32.1064 375.848C31.1093 375.748 30.3116 375.848 29.8131 376.048C29.514 376.247 29.2148 376.447 29.2148 376.447Z" fill="#F5F5F5"/>
<path d="M31.0098 391.134C31.0098 391.234 32.0068 391.234 33.6022 390.634C35.1975 390.135 37.0919 388.936 39.2855 388.037C40.3822 387.637 41.5787 387.337 42.5758 387.337C43.5729 387.337 44.4702 387.637 45.1682 387.937C46.5641 388.636 46.9629 389.635 47.0626 389.535C47.0626 389.535 47.0626 389.235 46.7635 388.936C46.5641 388.536 46.0655 388.037 45.3676 387.637C44.6696 387.237 43.6726 386.938 42.5758 386.838C41.479 386.838 40.2825 387.037 39.086 387.537C36.7928 388.436 34.8983 389.635 33.4027 390.234C31.9071 390.834 31.0098 391.034 31.0098 391.134Z" fill="#F5F5F5"/>
<path d="M32.5039 397.927C32.5039 398.027 33.2019 398.227 34.498 398.527C35.6945 398.826 37.4893 399.126 39.3837 399.326C41.2781 399.526 43.0729 399.526 44.2694 399.426C45.5655 399.326 46.2635 399.226 46.2635 399.226C46.2635 399.026 43.1726 399.226 39.3837 398.826C35.4951 398.527 32.5039 397.727 32.5039 397.927Z" fill="#F5F5F5"/>
<path d="M655.674 20.3809L599.041 0L543.005 20.0812C535.826 23.478 529.545 25.4761 529.545 32.1699V65.4387C529.545 88.5171 535.627 111.396 547.991 131.677C558.46 148.661 574.613 166.144 599.539 177.334C622.472 169.841 639.522 149.96 649.991 132.975C662.455 112.794 668.437 89.9158 668.437 66.7375V36.8655C668.537 27.2745 663.551 22.6788 655.674 20.3809Z" fill="#F5F5F5"/>
<path d="M599.639 157.952C579.897 149.16 567.135 134.974 558.859 121.586C548.988 105.601 544.202 87.518 544.202 69.2351V45.857C544.202 40.562 547.393 35.6666 553.674 32.6694L599.041 15.6853V0L543.005 20.0812C537.123 22.6788 529.545 25.4761 529.545 32.1699V65.4387C529.545 88.5171 535.627 111.396 547.991 131.677C558.46 148.661 574.613 166.144 599.539 177.334V157.952H599.639Z" fill="#EBEBEB"/>
<path d="M599.639 177.334C603.628 176.035 607.217 174.437 610.806 172.538C620.179 167.443 628.255 160.35 634.337 153.956C641.217 146.862 646.302 139.07 650.689 131.876C663.153 111.695 669.135 88.8168 668.637 65.0391V37.5648C668.637 23.8776 661.557 22.8786 655.675 20.281L599.041 0V15.6853L644.906 32.9691C651.188 35.9663 654.378 40.8617 654.378 46.1568V69.5349C654.378 87.8177 649.593 105.901 639.722 121.886C631.446 135.373 619.182 149.26 599.44 158.052V177.334H599.639Z" fill="#E0E0E0"/>
<path d="M614.096 67.7366L614.196 63.2408C614.196 55.1484 607.615 48.5546 599.539 48.5546C591.463 48.5546 584.882 55.1484 584.882 63.2408L584.782 67.8365C580.794 68.4359 577.803 71.8328 577.803 75.9289V102.404C577.803 107 581.492 110.596 585.979 110.596H613.398C617.985 110.596 621.574 106.9 621.574 102.404V75.9289C621.574 71.6329 618.284 68.1362 614.096 67.7366ZM603.328 95.8103H596.149L597.246 90.6152C596.049 89.8159 595.152 88.4172 595.152 86.9186C595.152 84.5209 597.146 82.5227 599.539 82.5227C601.932 82.5227 603.926 84.5209 603.926 86.9186C603.926 88.4172 603.128 89.8159 602.032 90.5153C602.53 92.5134 603.328 95.8103 603.328 95.8103ZM610.906 67.6367H587.873L587.973 63.1409C587.973 56.7469 593.158 51.5518 599.539 51.5518C605.92 51.5518 611.105 56.7469 611.105 63.041L610.906 67.6367Z" fill="#E0E0E0"/>
<path d="M553.374 67.4368C553.275 67.4368 552.876 65.7384 552.477 62.8411C552.178 59.9439 551.879 55.9476 551.979 51.5517C552.078 49.3538 552.178 47.2557 552.377 45.3575C552.577 43.4593 552.876 41.661 553.674 40.3622C554.372 39.0634 555.369 38.2642 556.166 37.8645C556.964 37.4649 557.462 37.5648 557.462 37.5648C557.562 37.6647 555.568 38.0643 554.372 40.6619C553.773 41.8608 553.474 43.5592 553.374 45.4574C553.275 47.3556 553.075 49.4537 553.075 51.6516C552.976 56.0475 553.075 59.9439 553.275 62.8411C553.374 65.6385 553.474 67.3369 553.374 67.4368Z" fill="white"/>
<path d="M554.172 81.8233C553.873 81.8233 553.674 80.4247 553.574 78.7263C553.574 77.0278 553.774 75.6292 553.973 75.6292C554.272 75.6292 554.472 77.0278 554.571 78.7263C554.671 80.5246 554.472 81.8233 554.172 81.8233Z" fill="white"/>
<path d="M681.001 411.215C681.001 411.315 528.848 411.514 341.099 411.514C153.35 411.514 1.19727 411.415 1.19727 411.215C1.19727 411.015 153.35 410.915 341.099 410.915C528.848 411.015 681.001 411.115 681.001 411.215Z" fill="#263238"/>
<path d="M559.756 28.2736H127.027C119.549 28.2736 113.566 34.3679 113.566 41.7609V347.974C113.566 355.467 119.649 361.461 127.027 361.461H293.139C293.139 361.461 303.708 394.231 271.004 411.115H426.248C426.248 411.115 389.257 398.427 398.829 361.461H559.856C567.334 361.461 573.316 355.367 573.316 347.974V41.7609C573.217 34.2679 567.234 28.2736 559.756 28.2736Z" fill="#455A64"/>
<path d="M349.175 329.292C355.058 337.684 345.885 346.975 337.41 341.081C337.111 340.881 336.911 340.681 336.712 340.381C330.829 331.989 340.002 322.698 348.477 328.592C348.776 328.792 348.976 328.992 349.175 329.292Z" fill="#263238"/>
<path d="M565.739 305.514H121.045V43.5592C121.045 38.1643 125.332 33.8683 130.717 33.8683H556.167C561.551 33.8683 565.839 38.1643 565.839 43.5592V305.514H565.739Z" fill="white"/>
<path d="M565.739 56.4472H121.045V42.9598C121.045 37.8646 125.133 33.7684 130.218 33.7684H558.361C562.548 33.7684 565.839 37.1653 565.839 41.2614V56.4472H565.739Z" fill="#EBEBEB"/>
<path d="M135.202 48.6545C136.909 48.6545 138.293 47.2679 138.293 45.5574C138.293 43.8469 136.909 42.4603 135.202 42.4603C133.495 42.4603 132.111 43.8469 132.111 45.5574C132.111 47.2679 133.495 48.6545 135.202 48.6545Z" fill="#E0E0E0"/>
<path d="M144.476 48.6545C146.183 48.6545 147.567 47.2679 147.567 45.5574C147.567 43.8469 146.183 42.4603 144.476 42.4603C142.769 42.4603 141.385 43.8469 141.385 45.5574C141.385 47.2679 142.769 48.6545 144.476 48.6545Z" fill="#E0E0E0"/>
<path d="M153.349 48.6545C155.056 48.6545 156.44 47.2679 156.44 45.5574C156.44 43.8469 155.056 42.4603 153.349 42.4603C151.642 42.4603 150.258 43.8469 150.258 45.5574C150.258 47.2679 151.642 48.6545 153.349 48.6545Z" fill="#E0E0E0"/>
<path d="M482.383 361.561C482.383 361.661 420.864 361.861 344.887 361.861C268.91 361.861 207.391 361.761 207.391 361.561C207.391 361.462 268.91 361.262 344.887 361.262C420.764 361.262 482.383 361.362 482.383 361.561Z" fill="#263238"/>
<path d="M412.09 94.6114L344.289 69.5349L277.086 94.2118C268.511 98.4079 261.033 100.906 261.033 109.098V149.96C261.033 178.333 268.312 206.507 283.168 231.283C295.731 252.164 315.074 273.644 344.987 287.331C372.406 278.14 392.946 253.762 405.409 232.882C420.266 208.005 427.544 179.931 427.544 151.558V114.892C427.544 103.203 421.462 97.4088 412.09 94.6114Z" fill="#21BF73" fill-opacity="0.3"/>
<g opacity="0.8">
<g opacity="0.8">
<g opacity="0.8">
<path opacity="0.8" d="M412.09 94.6114L344.289 69.5349L277.086 94.2118C268.511 98.4079 261.033 100.906 261.033 109.098V149.96C261.033 178.333 268.312 206.507 283.168 231.283C295.731 252.164 315.074 273.644 344.987 287.331C372.406 278.14 392.946 253.762 405.409 232.882C420.266 208.005 427.544 179.931 427.544 151.558V114.892C427.544 103.203 421.462 97.4088 412.09 94.6114Z" fill="white"/>
</g>
</g>
</g>
<path d="M385.665 198.114H373.202V130.178C373.202 114.193 360.24 101.205 344.287 101.205C328.334 101.205 315.372 114.193 315.372 130.178V198.114H302.908V130.178C302.908 107.3 321.454 88.7169 344.287 88.7169C367.12 88.7169 385.665 107.3 385.665 130.178V198.114Z" fill="#21BF73"/>
<g opacity="0.4">
<g opacity="0.4">
<path opacity="0.4" d="M385.665 198.114H373.202V130.178C373.202 114.193 360.24 101.205 344.287 101.205C328.334 101.205 315.372 114.193 315.372 130.178V198.114H302.908V130.178C302.908 107.3 321.454 88.7169 344.287 88.7169C367.12 88.7169 385.665 107.3 385.665 130.178V198.114Z" fill="black"/>
</g>
</g>
<path d="M394.34 239.576H294.234C291.044 239.576 288.451 236.978 288.451 233.781V173.637C288.451 170.44 291.044 167.843 294.234 167.843H394.24C397.431 167.843 400.023 170.44 400.023 173.637V233.781C400.123 236.978 397.531 239.576 394.34 239.576Z" fill="#21BF73"/>
<g opacity="0.5">
<path opacity="0.5" d="M353.659 194.418C353.659 189.223 349.471 185.027 344.287 185.027C339.102 185.027 334.914 189.223 334.914 194.418C334.914 198.714 337.806 202.211 341.694 203.41V217.396H346.779V203.41C350.767 202.211 353.659 198.714 353.659 194.418Z" fill="black"/>
</g>
<path d="M294.434 232.782C294.135 232.782 293.936 220.793 293.936 206.107C293.936 191.321 294.135 179.332 294.434 179.332C294.733 179.332 294.933 191.321 294.933 206.107C294.933 220.893 294.633 232.782 294.434 232.782Z" fill="#FAFAFA"/>
<path d="M337.009 206.407C337.009 206.407 336.611 206.307 335.913 205.807C335.215 205.308 334.417 204.508 333.52 203.31C331.825 201.012 330.229 196.916 331.226 192.42C332.323 187.924 335.613 184.927 338.206 183.728C339.502 183.029 340.699 182.729 341.496 182.629C342.294 182.529 342.792 182.529 342.792 182.529C342.792 182.729 340.998 182.829 338.605 184.327C336.212 185.626 333.221 188.523 332.223 192.72C331.226 196.816 332.622 200.812 334.118 203.01C335.514 205.308 337.109 206.207 337.009 206.407Z" fill="#FAFAFA"/>
<path d="M428.142 271.646C428.142 271.646 428.441 271.246 428.94 270.547C429.039 270.347 429.239 270.147 429.438 269.947C429.638 269.747 429.737 269.448 429.937 269.148C430.236 268.549 430.635 267.949 430.934 267.05C431.133 266.65 431.333 266.251 431.432 265.751C431.532 265.252 431.731 264.752 431.831 264.253C432.031 263.753 432.13 263.154 432.13 262.554C432.23 261.955 432.33 261.355 432.429 260.756C432.729 258.258 432.529 255.261 432.031 251.964C431.034 245.37 428.242 237.677 423.954 229.285C419.667 220.893 413.884 211.802 406.705 202.41C399.526 193.019 390.951 183.228 380.981 173.438C371.01 163.647 359.843 153.856 347.18 144.565C340.898 139.969 334.218 135.373 327.238 131.177C320.259 126.881 312.881 122.985 305.103 119.488C297.326 116.091 289.051 113.094 280.476 111.695C276.188 110.996 271.701 110.696 267.314 111.396C265.121 111.695 263.027 112.295 260.933 113.194C258.939 114.193 257.144 115.492 255.649 117.09C254.153 118.789 253.156 120.787 252.358 122.885C251.66 124.983 251.361 127.181 251.261 129.379C251.062 133.775 251.959 138.171 253.056 142.467C255.449 150.959 259.338 158.751 263.525 166.144C267.813 173.538 272.599 180.431 277.584 186.925C282.57 193.419 287.854 199.513 293.139 205.308C303.807 216.797 314.775 226.888 325.643 235.679C336.511 244.471 347.08 251.964 357.25 257.958C367.42 264.053 377.092 268.848 385.866 272.045C394.64 275.342 402.617 277.24 409.297 277.44C412.588 277.54 415.579 277.44 418.072 276.841C418.67 276.741 419.268 276.541 419.866 276.341C420.465 276.141 420.963 276.042 421.462 275.842C421.96 275.642 422.459 275.442 422.858 275.242C423.256 275.042 423.655 274.743 424.054 274.543C424.852 274.143 425.45 273.644 425.948 273.244C426.248 273.044 426.447 272.844 426.646 272.745C426.846 272.545 427.045 272.345 427.145 272.245C427.743 271.945 428.142 271.646 428.142 271.646C428.142 271.646 427.843 271.945 427.145 272.645C426.946 272.844 426.846 272.944 426.646 273.144C426.447 273.344 426.148 273.544 425.948 273.744C425.45 274.143 424.852 274.643 424.054 275.042C423.655 275.242 423.256 275.542 422.858 275.742C422.359 275.942 421.96 276.141 421.462 276.341C420.963 276.541 420.465 276.741 419.866 276.841C419.268 276.941 418.67 277.24 418.072 277.34C415.579 277.94 412.588 278.14 409.297 278.04C402.617 277.84 394.64 275.942 385.866 272.745C376.992 269.548 367.321 264.752 357.151 258.658C346.98 252.563 336.312 245.17 325.444 236.379C314.576 227.587 303.608 217.496 292.839 206.007C287.555 200.213 282.27 194.118 277.285 187.624C272.3 181.13 267.514 174.237 263.127 166.844C258.839 159.451 254.951 151.558 252.558 143.066C251.361 138.77 250.564 134.374 250.763 129.878C250.863 127.581 251.162 125.383 251.86 123.185C252.657 120.987 253.754 118.989 255.25 117.29C256.845 115.592 258.74 114.293 260.734 113.294C262.828 112.395 265.021 111.795 267.215 111.396C271.701 110.696 276.188 111.096 280.575 111.695C289.35 113.094 297.526 116.091 305.402 119.488C313.18 122.985 320.658 126.881 327.637 131.177C334.617 135.473 341.297 139.969 347.579 144.565C360.142 153.856 371.409 163.747 381.379 173.538C391.25 183.328 399.925 193.119 407.104 202.61C414.283 212.101 420.066 221.093 424.353 229.585C428.541 237.977 431.333 245.77 432.33 252.364C432.828 255.661 432.928 258.658 432.729 261.155C432.729 261.755 432.529 262.354 432.429 262.954C432.33 263.553 432.23 264.053 432.031 264.652C431.931 265.152 431.731 265.651 431.632 266.151C431.432 266.65 431.233 267.05 431.133 267.45C430.834 268.249 430.435 268.948 430.036 269.548C429.837 269.847 429.737 270.147 429.538 270.347C429.339 270.547 429.239 270.746 429.039 270.946C428.441 271.246 428.142 271.646 428.142 271.646Z" fill="#21BF73"/>
<path d="M460.048 194.418C460.048 194.418 460.048 193.918 459.948 193.019C459.948 192.819 459.948 192.52 459.848 192.22C459.848 191.92 459.749 191.621 459.649 191.321C459.549 190.721 459.35 189.922 459.051 189.123C458.851 188.723 458.751 188.224 458.552 187.824C458.353 187.424 458.153 186.925 457.854 186.425C457.655 185.926 457.356 185.426 457.056 184.927C456.757 184.427 456.458 183.928 456.059 183.428C454.564 181.33 452.47 179.232 449.977 177.134C444.892 172.938 437.713 169.042 428.939 165.545C420.165 162.148 409.795 159.251 398.229 156.953C386.563 154.655 373.701 153.157 359.842 152.457C345.983 151.758 331.027 151.958 315.472 153.456C307.695 154.156 299.719 155.255 291.642 156.753C283.566 158.252 275.49 160.25 267.314 162.847C259.237 165.545 251.161 168.742 243.783 173.537C240.094 175.935 236.604 178.633 233.712 182.029C232.317 183.728 231.12 185.626 230.223 187.624C229.425 189.722 228.926 191.82 228.827 194.118C228.827 196.316 229.325 198.514 230.223 200.612C231.12 202.61 232.317 204.508 233.712 206.207C236.504 209.604 240.094 212.401 243.783 214.699C251.161 219.395 259.237 222.691 267.314 225.389C275.39 227.986 283.566 229.985 291.642 231.483C299.719 232.982 307.695 234.081 315.472 234.78C331.027 236.279 345.983 236.379 359.842 235.779C373.701 235.08 386.663 233.581 398.229 231.283C409.795 228.986 420.165 226.188 428.939 222.691C437.713 219.295 444.892 215.398 449.977 211.102C452.57 209.004 454.663 206.906 456.059 204.808C456.458 204.309 456.757 203.809 457.056 203.31C457.356 202.81 457.655 202.311 457.854 201.811C458.054 201.311 458.353 200.912 458.552 200.412C458.751 199.913 458.851 199.513 459.051 199.114C459.35 198.314 459.549 197.515 459.649 196.916C459.749 196.616 459.749 196.316 459.848 196.016C459.848 195.717 459.848 195.517 459.948 195.317C459.948 194.818 460.048 194.418 460.048 194.418C460.048 194.418 460.048 194.917 459.948 195.817C459.948 196.016 459.948 196.316 459.948 196.616C459.948 196.916 459.848 197.215 459.749 197.515C459.649 198.214 459.449 198.914 459.15 199.713C459.051 200.113 458.851 200.612 458.652 201.012C458.452 201.411 458.253 201.911 457.954 202.41C457.754 202.91 457.455 203.409 457.156 203.909C456.857 204.409 456.558 204.908 456.159 205.408C454.663 207.506 452.57 209.604 450.077 211.702C444.992 215.998 437.713 219.894 429.039 223.391C420.265 226.887 409.895 229.785 398.229 232.083C386.563 234.38 373.701 235.879 359.742 236.578C345.783 237.278 330.927 237.078 315.273 235.679C307.496 234.98 299.519 233.881 291.443 232.382C283.367 230.884 275.191 228.886 267.114 226.288C259.038 223.591 250.862 220.294 243.384 215.598C239.695 213.2 236.105 210.403 233.214 206.906C231.818 205.208 230.522 203.21 229.624 201.112C228.727 199.014 228.229 196.716 228.229 194.418C228.229 192.12 228.827 189.822 229.624 187.724C230.522 185.626 231.818 183.728 233.214 182.029C236.105 178.533 239.695 175.835 243.384 173.438C250.862 168.642 258.938 165.345 267.015 162.748C275.091 160.15 283.267 158.152 291.343 156.653C299.419 155.155 307.396 154.056 315.173 153.356C330.827 151.858 345.684 151.758 359.643 152.457C373.602 153.157 386.464 154.655 398.13 156.953C409.795 159.251 420.165 162.148 428.939 165.645C437.713 169.142 444.892 173.038 449.977 177.334C452.57 179.432 454.663 181.53 456.059 183.628C456.458 184.128 456.757 184.727 457.056 185.127C457.356 185.626 457.655 186.126 457.854 186.625C458.054 187.125 458.353 187.624 458.552 188.024C458.751 188.523 458.851 188.923 459.051 189.323C459.35 190.122 459.449 190.921 459.649 191.521C459.749 191.82 459.749 192.12 459.848 192.42C459.848 192.719 459.848 192.919 459.848 193.219C460.048 193.918 460.048 194.418 460.048 194.418Z" fill="#21BF73"/>
<path d="M417.773 98.308C417.773 98.308 417.374 98.1082 416.676 97.6086C416.476 97.5087 416.277 97.3089 416.077 97.209C415.878 97.1091 415.579 96.9093 415.28 96.8094C414.682 96.5097 413.984 96.2099 413.186 95.9102C412.787 95.8103 412.388 95.6105 411.89 95.5106C411.391 95.4107 410.893 95.3108 410.394 95.2109C409.896 95.111 409.297 95.0111 408.699 95.0111C408.101 95.0111 407.503 94.8112 406.904 94.9112C404.312 94.8112 401.421 95.2109 398.23 95.9102C391.749 97.4088 384.271 100.706 376.195 105.501C368.118 110.297 359.544 116.791 350.67 124.583C341.796 132.376 332.623 141.667 323.649 152.257C314.576 162.847 305.602 174.736 297.227 188.024C293.039 194.618 289.051 201.611 285.262 208.904C281.473 216.198 278.083 223.89 275.191 231.883C272.399 239.875 270.007 248.367 269.209 257.059C268.81 261.455 268.81 265.851 269.807 270.247C270.306 272.445 271.004 274.543 272.1 276.441C273.197 278.339 274.593 280.138 276.388 281.536C278.183 282.835 280.177 283.834 282.37 284.434C284.564 284.933 286.757 285.133 288.951 285.133C293.338 285.033 297.725 283.834 301.813 282.435C310.089 279.438 317.667 275.042 324.646 270.347C331.725 265.551 338.206 260.256 344.288 254.861C350.37 249.366 356.153 243.772 361.538 238.077C372.206 226.588 381.479 214.899 389.456 203.509C397.432 192.12 404.113 180.931 409.497 170.34C414.881 159.75 418.969 149.76 421.561 140.768C424.253 131.777 425.55 123.684 425.35 116.99C425.251 113.694 424.852 110.696 424.154 108.299C424.054 107.699 423.755 107.1 423.556 106.6C423.356 106.001 423.157 105.501 422.957 105.002C422.758 104.502 422.459 104.103 422.259 103.603C422.06 103.203 421.761 102.804 421.561 102.404C421.163 101.605 420.564 101.105 420.165 100.606C419.966 100.306 419.767 100.106 419.567 99.9065C419.368 99.7067 419.168 99.5068 418.969 99.4069C418.072 98.6077 417.773 98.308 417.773 98.308C417.773 98.308 418.171 98.6077 418.77 99.2071C418.969 99.307 419.168 99.5069 419.368 99.7067C419.567 99.9065 419.767 100.106 419.966 100.406C420.365 100.906 420.963 101.505 421.362 102.204C421.561 102.604 421.86 102.904 422.16 103.403C422.359 103.803 422.558 104.302 422.858 104.802C423.157 105.301 423.356 105.801 423.556 106.4C423.755 107 424.054 107.499 424.154 108.099C424.951 110.596 425.251 113.494 425.45 116.791C425.649 123.484 424.353 131.577 421.761 140.668C419.168 149.76 415.08 159.75 409.696 170.34C404.412 180.931 397.632 192.12 389.655 203.609C381.679 215.099 372.406 226.788 361.737 238.277C356.353 243.971 350.67 249.666 344.488 255.161C338.406 260.656 331.825 265.851 324.746 270.746C317.667 275.542 310.089 279.938 301.813 282.935C297.625 284.434 293.238 285.533 288.751 285.632C286.458 285.732 284.265 285.533 281.971 284.933C279.778 284.334 277.684 283.335 275.79 281.936C273.995 280.537 272.499 278.739 271.402 276.741C270.306 274.743 269.608 272.545 269.109 270.347C268.112 265.951 268.112 261.455 268.511 257.059C269.309 248.267 271.702 239.775 274.593 231.783C277.485 223.69 280.974 216.098 284.663 208.804C288.452 201.511 292.441 194.518 296.628 187.924C305.004 174.636 314.077 162.748 323.15 152.158C332.224 141.567 341.397 132.276 350.271 124.483C359.145 116.691 367.819 110.197 375.896 105.401C383.972 100.606 391.55 97.3089 398.031 95.9102C401.221 95.2109 404.212 94.8112 406.805 94.9112C407.403 94.9112 408.101 95.0111 408.599 95.0111C409.198 95.111 409.796 95.111 410.294 95.2109C410.793 95.3108 411.292 95.4107 411.79 95.5106C412.289 95.6105 412.687 95.8103 413.086 95.9102C413.884 96.11 414.582 96.5097 415.18 96.8094C415.479 97.0092 415.778 97.1091 415.978 97.209C416.177 97.4088 416.377 97.5087 416.576 97.6086C417.374 98.0082 417.773 98.308 417.773 98.308Z" fill="#21BF73"/>
<path d="M224.241 249.666C226.608 249.666 228.528 247.743 228.528 245.37C228.528 242.998 226.608 241.074 224.241 241.074C221.873 241.074 219.953 242.998 219.953 245.37C219.953 247.743 221.873 249.666 224.241 249.666Z" fill="#21BF73"/>
<path d="M469.819 108.798C469.819 111.196 467.925 113.094 465.532 113.094C463.139 113.094 461.244 111.196 461.244 108.798C461.244 106.4 463.139 104.502 465.532 104.502C467.925 104.502 469.819 106.4 469.819 108.798Z" fill="#21BF73"/>
<path d="M254.451 256.46C254.451 257.059 253.953 257.559 253.355 257.559C252.756 257.559 252.258 257.059 252.258 256.46C252.258 255.86 252.756 255.361 253.355 255.361C253.953 255.361 254.451 255.86 254.451 256.46Z" fill="#21BF73"/>
<path d="M277.684 135.773C277.684 136.372 277.185 136.872 276.587 136.872C275.989 136.872 275.49 136.372 275.49 135.773C275.49 135.173 275.989 134.674 276.587 134.674C277.185 134.674 277.684 135.173 277.684 135.773Z" fill="#21BF73"/>
<path d="M448.184 194.418C448.184 195.017 447.685 195.517 447.087 195.517C446.489 195.517 445.99 195.017 445.99 194.418C445.99 193.819 446.489 193.319 447.087 193.319C447.785 193.319 448.184 193.819 448.184 194.418Z" fill="#21BF73"/>
<path d="M463.438 143.366C463.438 143.965 462.939 144.465 462.341 144.465C461.743 144.465 461.244 143.965 461.244 143.366C461.244 142.766 461.743 142.267 462.341 142.267C462.939 142.267 463.438 142.766 463.438 143.366Z" fill="#21BF73"/>
<path d="M639.023 306.813C643.809 303.816 649.293 301.917 654.977 301.318C657.569 301.018 660.46 301.118 662.455 302.717C662.853 303.016 663.352 303.516 663.252 304.115C663.153 304.515 662.853 304.815 662.554 305.014C656.073 310.01 646.302 310.609 639.023 306.813Z" fill="#21BF73"/>
<path d="M639.422 306.413C643.011 303.616 646.601 300.718 649.692 297.322C652.783 293.925 655.176 289.829 656.173 285.433C656.472 284.034 656.571 282.535 655.674 281.436C647.498 287.83 641.017 296.123 639.422 306.413Z" fill="#21BF73"/>
<path d="M639.124 306.713C639.722 302.217 639.922 297.621 638.925 293.225C637.927 288.83 635.534 284.633 631.746 282.036C630.35 285.333 630.948 289.129 631.945 292.626C633.441 298.021 635.933 303.116 639.024 307.612" fill="#21BF73"/>
<path d="M631.146 321.199C636.032 321.799 640.22 324.396 643.909 327.693C647.598 330.99 650.091 335.486 651.188 340.281C646.402 339.982 642.314 336.585 639.422 332.788C636.431 328.992 634.437 324.796 631.146 321.199Z" fill="#21BF73"/>
<path d="M629.352 323.497C633.24 313.806 631.844 302.117 625.762 293.625C622.97 303.516 623.967 314.705 629.352 323.497Z" fill="#21BF73"/>
<path d="M618.783 336.185C623.17 335.885 627.657 336.984 631.546 339.182C635.434 341.38 638.525 344.777 640.519 348.773C640.819 349.273 641.018 349.972 640.619 350.472C640.32 350.871 639.722 350.971 639.223 350.871C634.936 350.572 631.147 347.974 627.956 345.077C624.865 342.08 622.173 338.683 618.783 336.185Z" fill="#21BF73"/>
<path d="M619.082 335.486C621.376 328.193 621.475 320.2 619.481 312.807C618.683 309.91 617.387 306.813 614.695 305.414C614.496 305.314 614.197 305.214 613.997 305.314C613.798 305.414 613.598 305.614 613.499 305.814C612.502 307.812 612.302 310.11 612.402 312.308C612.502 314.505 613 316.703 613.399 318.901C614.296 322.898 614.695 327.293 616.889 330.69C617.387 331.49 617.886 332.389 618.285 333.288C618.683 334.187 618.683 334.487 619.082 335.186" fill="#21BF73"/>
<path d="M591.065 339.682C593.159 331.789 590.965 322.098 585.98 315.604C585.581 315.105 585.083 314.605 584.484 314.705C583.587 314.805 583.288 316.004 583.387 316.903C583.687 324.996 586.379 332.988 591.065 339.682Z" fill="#21BF73"/>
<path d="M588.471 341.38C578.9 343.878 567.832 341.48 559.855 335.586C564.641 333.188 570.225 332.489 575.41 333.688C580.495 334.786 585.281 337.184 588.471 341.38Z" fill="#21BF73"/>
<path d="M586.377 336.085C580.993 327.294 570.623 321.499 560.354 320.999C561.55 325.195 564.94 328.492 568.829 330.391C572.717 332.389 577.005 333.188 581.292 334.087C582.987 334.387 585.28 334.786 586.377 336.085Z" fill="#21BF73"/>
<path d="M590.466 310.509C588.971 305.514 587.575 300.419 587.176 295.223C586.777 290.028 587.475 284.633 590.167 280.138C595.153 289.928 595.751 301.318 590.566 311.009" fill="#21BF73"/>
<path d="M573.516 301.917C567.633 291.227 555.668 282.635 543.504 281.436C548.19 293.125 560.953 302.117 573.516 301.917Z" fill="#21BF73"/>
<path d="M577.204 304.015C568.43 305.314 560.952 311.009 552.776 314.406C550.981 315.105 549.087 315.704 547.292 315.504C545.398 315.305 543.603 314.006 543.104 312.108C542.705 310.609 543.503 308.911 544.6 307.812C545.697 306.713 547.192 306.013 548.588 305.414C557.562 301.717 567.134 301.618 576.506 303.815" fill="#21BF73"/>
<path d="M582.291 310.21C580.297 310.809 579.599 311.808 578.004 313.107C572.619 317.702 566.238 320.999 559.458 322.698C558.76 322.898 557.863 322.898 557.464 322.298C557.165 321.699 557.564 321.099 557.962 320.6C560.854 317.003 564.842 314.605 569.13 313.007C573.417 311.408 577.106 309.51 582.191 309.91" fill="#21BF73"/>
<path d="M588.073 272.944C580.894 279.638 570.923 283.035 561.152 282.136C560.753 282.136 560.254 282.036 559.955 281.736C559.257 281.037 560.055 279.838 560.853 279.239C568.729 272.944 578.301 270.447 588.073 272.944Z" fill="#21BF73"/>
<path d="M581.293 270.447C571.821 263.353 558.958 261.255 547.691 264.852C551.879 269.048 557.762 271.246 563.645 271.845C569.627 272.545 575.51 271.845 581.293 270.447Z" fill="#21BF73"/>
<path d="M583.984 253.363C584.782 245.47 584.283 239.176 584.782 231.283C584.782 230.684 584.981 229.885 585.58 229.685C586.377 229.385 587.075 230.384 587.374 231.184C589.767 238.477 588.471 246.869 583.984 253.163" fill="#21BF73"/>
<path d="M584.483 254.162C579.099 250.865 575.111 246.469 571.422 241.474C568.829 237.977 566.636 233.681 567.234 229.385C570.824 229.285 574.313 231.283 576.706 234.081C579.099 236.878 580.495 240.275 581.492 243.772C582.589 247.169 583.287 250.765 584.483 254.162Z" fill="#21BF73"/>
<path d="M571.721 250.665C559.956 246.269 548.988 239.875 539.516 231.683C543.404 230.084 547.791 231.084 551.58 232.582C560.354 236.179 567.533 242.173 571.821 250.565" fill="#21BF73"/>
<path d="M580.894 258.558C574.912 259.257 568.93 259.657 563.047 258.658C557.264 257.659 551.78 255.361 546.396 253.063C545.997 252.863 545.498 252.663 545.299 252.164C545.1 251.664 545.299 251.065 545.698 250.765C546.097 250.366 546.595 250.266 547.094 250.066C552.976 248.367 559.358 249.167 565.141 251.165C570.924 253.163 575.61 255.461 580.894 258.558Z" fill="#21BF73"/>
<path d="M614.794 273.144C618.882 264.952 618.583 255.361 615.094 246.969C612.601 250.765 612.302 255.561 612.8 259.957C613.299 264.452 614.595 269.048 614.695 273.544" fill="#21BF73"/>
<path d="M631.047 265.052C641.118 264.852 651.288 269.148 658.168 276.641C653.083 277.44 647.898 276.141 643.311 273.844C638.725 271.646 634.637 268.449 630.549 265.351" fill="#21BF73"/>
<path d="M641.914 261.355C646.899 260.956 651.586 260.356 656.372 261.755C661.158 263.253 665.445 266.55 667.439 271.146C662.853 271.646 658.067 270.547 653.879 268.548C649.592 266.65 645.703 264.053 641.914 261.355Z" fill="#21BF73"/>
<path d="M625.762 261.555C630.249 258.658 634.836 255.661 640.02 254.462C645.205 253.263 651.188 254.162 654.877 258.058C650.689 260.556 645.604 260.856 640.718 260.856C635.833 260.856 629.85 260.756 625.264 262.454" fill="#21BF73"/>
<path d="M625.763 261.755C633.34 254.262 636.232 240.774 633.241 230.584C627.258 239.675 624.566 250.965 625.763 261.755Z" fill="#21BF73"/>
<path d="M604.825 240.575C603.429 237.278 602.332 233.681 601.136 230.284C599.939 226.888 598.244 223.491 595.851 220.793C593.458 218.096 590.068 216.098 586.379 215.898C588.672 226.188 595.452 235.38 604.725 240.575" fill="#21BF73"/>
<path d="M608.613 244.971C611.006 241.674 613.698 237.278 616.989 234.78C620.179 232.382 624.367 230.884 628.355 231.783C624.267 238.976 616.789 243.972 608.613 244.971Z" fill="#21BF73"/>
<path d="M607.816 240.775C609.411 236.778 610.906 232.782 611.604 228.586C612.203 224.39 611.804 219.894 609.71 216.198C605.522 224.09 604.226 232.582 607.616 240.874" fill="#21BF73"/>
<path d="M604.824 216.198C602.431 208.305 595.252 202.61 587.575 199.913C586.578 199.613 585.58 199.313 584.583 199.413C583.586 199.513 582.589 200.312 582.39 201.311C582.091 202.61 583.187 203.809 584.284 204.708C590.167 210.003 597.246 213.9 604.824 216.198Z" fill="#21BF73"/>
<path d="M604.725 209.804C604.426 204.708 604.127 199.613 602.432 194.818C600.836 190.022 597.646 185.526 593.059 183.428C592.261 188.523 594.555 193.619 597.247 198.015C599.939 202.41 603.229 206.606 604.825 211.502" fill="#21BF73"/>
<path d="M604.824 213.3C606.818 207.606 607.018 200.312 610.408 195.317C612.801 191.82 616.59 189.423 618.684 185.726C620.079 189.123 619.681 193.119 618.185 196.516C616.789 199.913 614.396 202.91 611.903 205.607C609.311 208.405 607.217 210.403 604.824 213.3Z" fill="#21BF73"/>
<path d="M604.824 381.742C605.024 381.742 605.124 343.578 605.124 296.522C605.124 249.466 605.024 211.302 604.824 211.302C604.625 211.302 604.525 249.466 604.525 296.522C604.525 343.578 604.625 381.742 604.824 381.742Z" fill="#21BF73"/>
<path d="M571.521 267.45C571.521 267.45 572.02 267.649 572.917 267.949C573.914 268.249 575.31 268.748 576.906 269.248C580.196 270.347 584.783 272.045 589.768 274.043C594.654 276.141 599.34 277.84 601.932 280.138C603.228 281.237 604.026 282.535 604.425 283.335C604.824 284.234 604.824 284.733 604.923 284.733C604.923 284.733 604.923 284.633 604.923 284.334C604.923 284.034 604.824 283.734 604.624 283.235C604.325 282.336 603.527 281.037 602.231 279.738C600.935 278.539 599.041 277.44 596.947 276.441C594.853 275.442 592.46 274.443 589.967 273.444C584.982 271.446 580.395 269.847 577.005 268.748C575.31 268.249 573.914 267.849 573.017 267.549C572.02 267.549 571.521 267.45 571.521 267.45Z" fill="#21BF73"/>
<path d="M560.654 240.575C560.654 240.575 560.754 240.775 561.053 240.974C561.352 241.274 561.751 241.674 562.25 242.173C563.346 243.172 564.942 244.571 566.836 246.369C570.725 249.866 576.109 254.662 581.992 259.957C587.874 265.252 593.059 270.247 596.549 274.143C598.344 276.041 599.74 277.64 600.637 278.739C601.036 279.238 601.435 279.638 601.734 280.038C602.033 280.337 602.133 280.437 602.133 280.437C602.133 280.437 602.033 280.238 601.833 279.938C601.634 279.638 601.235 279.139 600.836 278.639C599.939 277.54 598.543 275.842 596.848 273.943C593.358 270.047 588.273 264.952 582.291 259.657C576.308 254.362 570.924 249.666 567.036 246.269C565.141 244.571 563.546 243.272 562.349 242.273C561.851 241.873 561.352 241.474 561.053 241.174C560.754 240.675 560.654 240.575 560.654 240.575Z" fill="#21BF73"/>
<path d="M588.371 265.252C588.571 265.152 587.275 262.354 586.078 258.658C584.882 255.061 584.283 251.964 584.084 251.964C583.984 251.964 584.283 255.161 585.58 258.758C586.178 260.556 586.876 262.154 587.374 263.353C587.973 264.552 588.272 265.252 588.371 265.252Z" fill="#21BF73"/>
<path d="M604.725 288.33C604.725 288.33 605.123 287.93 605.622 287.231C606.22 286.432 607.018 285.433 607.915 284.234C609.909 281.736 612.601 278.139 615.593 274.343C618.684 270.547 621.475 267.05 623.469 264.552C624.467 263.353 625.264 262.354 625.862 261.555C626.461 260.856 626.76 260.456 626.66 260.456C626.66 260.456 626.261 260.756 625.663 261.455C625.065 262.154 624.167 263.054 623.17 264.352C621.077 266.75 618.185 270.247 615.194 274.043C612.103 277.94 609.511 281.436 607.616 284.034C606.719 285.333 605.921 286.432 605.423 287.131C605.024 287.93 604.725 288.33 604.725 288.33Z" fill="#21BF73"/>
<path d="M612.102 278.939C612.202 279.039 614.096 276.741 615.193 273.244C615.991 270.746 615.991 268.549 615.891 267.45H615.692C615.791 267.849 615.891 268.149 615.891 268.149C615.891 268.149 615.891 267.849 615.891 267.45H615.692C615.592 268.449 615.492 270.647 614.694 273.044C613.598 276.441 611.903 278.839 612.102 278.939Z" fill="#21BF73"/>
<path d="M621.475 267.05C621.575 267.15 622.173 266.351 623.569 265.851C624.965 265.252 627.159 265.152 629.452 265.351C631.845 265.551 633.939 265.951 635.434 266.351C636.93 266.75 637.827 267.05 637.927 266.95C637.927 266.85 637.03 266.45 635.534 265.951C634.039 265.451 631.945 264.952 629.552 264.852C627.159 264.652 624.865 264.852 623.47 265.551C621.974 266.151 621.376 267.05 621.475 267.05Z" fill="#21BF73"/>
<path d="M623.668 264.153C623.668 264.252 624.864 263.653 626.958 262.954C628.952 262.254 631.844 261.555 635.134 261.255C638.425 261.055 641.316 261.255 643.41 261.655C645.504 262.055 646.8 262.454 646.8 262.354C646.8 262.354 646.501 262.154 645.903 261.955C645.304 261.755 644.507 261.455 643.41 261.255C641.316 260.756 638.325 260.456 634.935 260.656C631.645 260.956 628.653 261.755 626.659 262.554C625.662 262.954 624.864 263.353 624.366 263.653C623.967 263.953 623.668 264.153 623.668 264.153Z" fill="#21BF73"/>
<path d="M604.825 252.064C604.925 252.064 606.021 248.367 607.218 243.772C608.414 239.176 609.212 235.38 609.112 235.38C609.013 235.38 607.916 239.076 606.719 243.672C605.523 248.267 604.725 251.964 604.825 252.064Z" fill="#21BF73"/>
<path d="M604.724 252.064C604.924 252.164 605.622 249.666 607.416 247.069C609.111 244.471 611.405 243.172 611.305 243.072C611.305 242.972 610.707 243.272 609.809 243.872C608.912 244.471 607.915 245.47 607.018 246.769C605.023 249.366 604.525 252.064 604.724 252.064Z" fill="#21BF73"/>
<path d="M604.824 361.362C604.924 361.362 605.024 360.462 605.423 358.864C605.821 357.265 606.619 354.967 608.015 352.27C610.607 346.875 615.393 340.081 621.475 333.188C624.467 329.691 627.458 326.494 629.851 323.397C632.343 320.3 634.338 317.303 635.833 314.705C637.329 312.108 638.326 309.81 638.824 308.211C639.124 307.412 639.323 306.813 639.423 306.413C639.522 306.013 639.622 305.714 639.622 305.714C639.622 305.714 639.323 306.613 638.625 308.111C638.027 309.71 636.93 311.908 635.434 314.405C633.939 317.003 631.845 319.9 629.352 322.997C626.86 326.095 623.968 329.292 620.877 332.788C614.795 339.682 610.009 346.575 607.417 352.07C606.121 354.768 605.423 357.165 605.024 358.764C604.824 359.563 604.725 360.263 604.725 360.662C604.824 361.162 604.824 361.362 604.824 361.362Z" fill="#21BF73"/>
<path d="M574.713 327.393C574.713 327.393 575.311 327.693 576.308 328.293C577.305 328.892 578.801 329.691 580.396 330.99C581.991 332.289 583.886 333.887 585.78 335.885C587.675 337.884 589.569 340.181 591.563 342.679C595.552 347.674 599.241 352.07 601.434 355.567C602.531 357.265 603.428 358.764 603.927 359.863C604.426 360.862 604.725 361.461 604.824 361.461C604.824 361.461 604.824 361.262 604.725 361.062C604.625 360.762 604.426 360.363 604.226 359.863C603.728 358.764 602.93 357.265 601.833 355.467C599.64 351.87 596.05 347.375 592.062 342.479C590.068 339.982 588.074 337.684 586.179 335.686C584.285 333.688 582.39 332.089 580.695 330.79C579 329.591 577.505 328.692 576.508 328.193C576.009 327.893 575.511 327.793 575.311 327.693C574.912 327.393 574.713 327.294 574.713 327.393Z" fill="#21BF73"/>
<path d="M574.113 338.383C574.113 338.483 575.409 338.583 577.404 338.883C579.497 339.182 582.289 339.482 585.28 340.481C588.272 341.48 590.764 342.979 592.36 344.178C593.955 345.476 594.753 346.475 594.852 346.376C594.852 346.376 594.753 346.076 594.354 345.576C593.955 345.077 593.457 344.477 592.659 343.778C591.064 342.379 588.571 340.881 585.48 339.882C582.389 338.883 579.497 338.583 577.404 338.483C575.409 338.283 574.113 338.283 574.113 338.383Z" fill="#21BF73"/>
<path d="M593.956 345.177C594.156 345.077 592.66 342.779 591.463 339.682C590.367 336.585 590.068 333.787 589.968 333.887C589.868 333.887 589.868 334.587 590.068 335.686C590.167 336.785 590.466 338.283 591.065 339.882C591.663 341.48 592.361 342.779 592.959 343.778C593.458 344.677 593.856 345.177 593.956 345.177Z" fill="#21BF73"/>
<path d="M565.041 297.721C565.041 297.721 565.24 297.821 565.54 298.021C565.938 298.221 566.437 298.421 567.135 298.72C567.833 299.02 568.63 299.42 569.628 299.919C570.525 300.419 571.622 300.918 572.818 301.618C573.416 301.917 574.015 302.317 574.613 302.617C575.211 303.016 575.909 303.416 576.507 303.815C577.804 304.615 579.199 305.614 580.595 306.613C583.387 308.711 586.378 311.308 589.17 314.206C591.962 317.103 594.355 320.2 596.449 323.097C597.446 324.596 598.343 325.895 599.141 327.294C599.54 327.993 599.939 328.592 600.238 329.292C600.537 329.891 600.936 330.59 601.235 331.19C601.833 332.389 602.331 333.488 602.83 334.387C603.329 335.386 603.628 336.185 603.927 336.885C604.226 337.484 604.425 338.083 604.625 338.483C604.824 338.883 604.824 338.983 604.924 338.983C604.924 338.983 604.924 338.783 604.724 338.383C604.625 337.984 604.425 337.384 604.126 336.785C603.927 336.085 603.528 335.186 603.129 334.287C602.73 333.288 602.232 332.189 601.634 330.99C601.334 330.391 601.035 329.791 600.736 329.092C600.437 328.392 600.038 327.793 599.639 327.094C598.842 325.695 597.944 324.296 596.947 322.798C594.953 319.9 592.461 316.803 589.669 313.806C586.777 310.909 583.786 308.311 580.994 306.213C579.499 305.214 578.202 304.215 576.806 303.416C576.109 303.016 575.51 302.617 574.812 302.217C574.214 301.817 573.516 301.518 572.918 301.218C571.721 300.519 570.625 300.019 569.727 299.619C568.73 299.12 567.933 298.82 567.235 298.52C566.537 298.221 566.038 298.021 565.639 297.921C565.24 297.721 565.041 297.721 565.041 297.721Z" fill="#21BF73"/>
<path d="M588.772 313.706C588.772 313.706 588.572 312.807 587.476 311.708C586.379 310.709 584.484 309.71 582.191 309.71C579.898 309.61 578.003 310.309 576.607 310.809C575.311 311.308 574.514 311.808 574.514 311.808C574.514 311.908 575.411 311.608 576.707 311.109C578.103 310.709 579.998 310.11 582.091 310.209C584.185 310.309 586.08 311.109 587.176 312.008C588.273 312.907 588.672 313.706 588.772 313.706Z" fill="#21BF73"/>
<path d="M592.36 317.403C592.559 317.303 591.163 315.305 590.864 312.507C590.465 309.71 591.363 307.412 591.163 307.412C591.064 307.412 590.764 307.912 590.565 308.811C590.266 309.71 590.166 311.109 590.266 312.507C590.465 314.006 590.964 315.205 591.363 316.104C591.861 317.003 592.26 317.403 592.36 317.403Z" fill="#21BF73"/>
<path d="M631.048 366.856C630.25 381.443 625.863 396.229 619.083 411.215H589.769C583.288 396.329 579.3 381.543 578.502 366.856H631.048Z" fill="#263238"/>
<path d="M583.287 390.434C583.287 390.634 592.959 390.734 604.824 390.734C616.689 390.734 626.361 390.634 626.361 390.434C626.361 390.235 616.689 390.135 604.824 390.135C592.959 390.135 583.287 390.235 583.287 390.434Z" fill="#FAFAFA"/>
<path d="M583.984 395.729C583.984 395.929 593.058 396.029 604.225 396.029C615.392 396.029 624.465 395.929 624.465 395.729C624.465 395.529 615.392 395.43 604.225 395.43C593.058 395.43 583.984 395.529 583.984 395.729Z" fill="#FAFAFA"/>
<path d="M618.684 376.447C618.484 376.447 618.385 379.445 618.385 383.241C618.385 386.938 618.484 390.035 618.684 390.035C618.883 390.035 618.983 387.038 618.983 383.241C618.983 379.445 618.784 376.447 618.684 376.447Z" fill="#FAFAFA"/>
<path d="M602.93 376.447C602.731 376.447 602.631 379.544 602.631 383.441C602.631 387.337 602.731 390.434 602.93 390.434C603.129 390.434 603.229 387.337 603.229 383.441C603.229 379.544 603.129 376.447 602.93 376.447Z" fill="#FAFAFA"/>
<path d="M588.172 376.248C587.973 376.248 587.873 379.445 587.873 383.441C587.873 387.437 587.973 390.634 588.172 390.634C588.372 390.634 588.471 387.437 588.471 383.441C588.471 379.445 588.372 376.248 588.172 376.248Z" fill="#FAFAFA"/>
<path d="M579.498 376.447C579.498 376.647 590.865 376.747 604.824 376.747C618.783 376.747 630.149 376.647 630.149 376.447C630.149 376.248 618.783 376.148 604.824 376.148C590.865 376.148 579.498 376.248 579.498 376.447Z" fill="#FAFAFA"/>
<path d="M73.7827 378.645L68.9967 402.922L59.8237 421.105C59.1257 422.404 59.724 424.003 61.1199 424.602C61.9175 424.902 62.7152 424.902 63.4131 424.402C67.9 421.705 84.2519 411.514 84.4514 409.716C84.7505 407.618 91.1317 384.44 91.1317 384.44L73.7827 378.645Z" fill="#21BF73"/>
<path d="M61.1191 424.602L84.7497 408.118L84.5503 409.117C84.3509 410.016 83.8524 410.815 83.1544 411.315C81.26 412.813 75.7761 416.71 63.4124 424.402C62.7145 424.902 61.8171 424.902 61.1191 424.602Z" fill="#263238"/>
<path d="M81.5603 400.924C80.8623 401.224 80.4635 402.123 80.7626 402.823C81.0617 403.522 81.8594 403.922 82.5573 403.622C83.2553 403.322 83.7538 402.323 83.4547 401.624C83.1556 400.924 82.0588 400.525 81.4605 400.924" fill="#EBEBEB"/>
<path d="M68.8969 415.211C68.6975 415.211 68.4981 413.812 67.2019 412.913C65.9057 411.914 64.5098 411.914 64.5098 411.814C64.5098 411.714 64.8089 411.614 65.4071 411.714C66.0054 411.714 66.803 412.014 67.501 412.614C68.1989 413.213 68.5978 413.912 68.7972 414.412C68.9966 414.811 68.9966 415.211 68.8969 415.211Z" fill="#263238"/>
<path d="M66.5041 418.108C66.4044 418.208 65.8062 417.209 64.6097 416.61C63.4132 415.91 62.3164 415.91 62.3164 415.811C62.3164 415.711 63.5129 415.411 64.9088 416.11C66.1053 416.81 66.6038 418.008 66.5041 418.108Z" fill="#263238"/>
<path d="M72.9846 411.714C72.8849 411.814 71.8878 410.316 70.1928 409.217C68.4978 408.018 66.8027 407.718 66.8027 407.618C66.8027 407.518 68.6972 407.518 70.4919 408.817C72.3863 410.016 73.184 411.714 72.9846 411.714Z" fill="#263238"/>
<path d="M75.0783 404.521C74.9786 404.621 73.7821 403.822 72.0871 403.322C70.3921 402.823 68.8965 403.022 68.8965 402.823C68.8965 402.723 70.3921 402.323 72.2865 402.823C73.9815 403.322 75.178 404.421 75.0783 404.521Z" fill="#263238"/>
<path d="M76.6743 397.428C76.5746 397.528 75.3781 396.429 73.5834 396.129C71.7887 395.729 70.2931 396.429 70.1934 396.229C70.1934 396.129 70.4925 395.929 71.0907 395.729C71.689 395.53 72.686 395.43 73.6831 395.629C74.6802 395.829 75.4778 396.229 75.9764 396.628C76.4749 397.028 76.6743 397.328 76.6743 397.428Z" fill="#263238"/>
<path d="M73.883 394.73C73.883 394.73 73.883 394.43 74.0824 393.831C74.2818 393.232 74.5809 392.432 75.3786 391.633C75.7774 391.233 76.1762 390.734 76.8742 390.534C77.273 390.434 77.7716 390.634 77.971 391.034C78.1704 391.433 78.1704 391.833 78.0707 392.233C77.6719 393.731 76.0765 394.93 74.2818 394.83C72.4871 394.63 71.1909 393.331 70.7921 391.833C70.6923 391.433 70.6923 391.034 70.9915 390.634C71.2906 390.234 71.7891 390.234 72.0883 390.334C72.7862 390.634 73.185 391.134 73.4841 391.533C74.1821 392.432 74.4812 393.232 74.6806 393.731C74.8801 394.331 74.8801 394.63 74.8801 394.63C74.7803 394.63 74.4812 393.331 73.185 391.733C72.7862 391.333 72.4871 390.934 71.8888 390.734C71.6894 390.634 71.3903 390.734 71.2906 390.934C71.1909 391.134 71.0912 391.433 71.1909 391.733C71.49 392.932 72.7862 394.131 74.2818 394.331C75.7774 394.43 77.1733 393.431 77.4724 392.233C77.5721 391.933 77.5721 391.633 77.3727 391.433C77.273 391.233 77.0736 391.134 76.7745 391.134C76.276 391.233 75.8771 391.633 75.4783 392.033C74.1821 393.431 73.9827 394.83 73.883 394.73Z" fill="#263238"/>
<path d="M154.646 380.544L158.634 404.921L167.409 423.304C168.007 424.602 167.409 426.201 166.013 426.8C165.215 427.1 164.417 427 163.719 426.6C159.332 423.703 143.279 413.113 143.08 411.315C142.881 409.217 137.098 385.839 137.098 385.839L154.646 380.544Z" fill="#21BF73"/>
<path d="M166.013 426.8L142.781 409.716L142.981 410.715C143.18 411.615 143.579 412.414 144.377 413.013C146.271 414.512 151.555 418.608 163.72 426.6C164.418 427 165.315 427.1 166.013 426.8Z" fill="#263238"/>
<path d="M146.271 402.623C146.969 402.923 147.367 403.822 147.068 404.521C146.769 405.22 145.872 405.62 145.174 405.32C144.476 405.021 143.977 404.022 144.376 403.322C144.775 402.623 145.772 402.223 146.37 402.723" fill="#EBEBEB"/>
<path d="M158.534 417.209C158.734 417.209 159.033 415.91 160.329 414.911C161.625 413.912 163.021 414.012 163.021 413.812C163.021 413.712 162.722 413.613 162.124 413.613C161.525 413.613 160.728 413.912 160.03 414.412C159.332 414.911 158.833 415.711 158.634 416.21C158.435 416.81 158.435 417.209 158.534 417.209Z" fill="#263238"/>
<path d="M160.829 420.106C160.928 420.206 161.626 419.207 162.823 418.608C164.019 418.008 165.116 418.008 165.116 417.809C165.116 417.709 163.92 417.409 162.524 418.108C161.228 418.908 160.729 420.106 160.829 420.106Z" fill="#263238"/>
<path d="M154.547 413.613C154.647 413.712 155.644 412.214 157.439 411.215C159.233 410.116 160.928 409.816 160.928 409.716C160.928 409.616 159.034 409.616 157.239 410.815C155.145 411.914 154.348 413.613 154.547 413.613Z" fill="#263238"/>
<path d="M152.652 406.319C152.752 406.419 153.948 405.62 155.743 405.22C157.438 404.821 158.934 405.021 158.934 404.821C158.934 404.721 157.438 404.221 155.544 404.721C153.749 405.121 152.553 406.22 152.652 406.319Z" fill="#263238"/>
<path d="M151.256 399.226C151.356 399.326 152.552 398.327 154.446 398.027C156.341 397.727 157.737 398.427 157.837 398.227C157.837 398.127 157.537 397.927 156.939 397.727C156.341 397.528 155.444 397.328 154.446 397.528C153.449 397.727 152.652 398.127 152.054 398.527C151.455 398.826 151.256 399.126 151.256 399.226Z" fill="#263238"/>
<path d="M154.149 396.628C154.149 396.628 154.149 396.329 154.049 395.729C153.849 395.13 153.55 394.331 152.852 393.431C152.553 393.032 152.154 392.532 151.357 392.333C150.958 392.233 150.459 392.432 150.26 392.732C150.061 393.132 150.061 393.531 150.061 393.931C150.36 395.43 151.955 396.728 153.75 396.628C155.544 396.529 156.94 395.23 157.339 393.731C157.439 393.332 157.439 392.932 157.14 392.532C156.841 392.133 156.342 392.033 156.043 392.233C155.345 392.432 154.946 392.932 154.647 393.332C153.949 394.131 153.55 394.93 153.351 395.529C153.151 396.129 153.151 396.429 153.151 396.429C153.251 396.429 153.55 395.13 154.946 393.531C155.345 393.132 155.744 392.732 156.242 392.532C156.442 392.432 156.741 392.532 156.841 392.732C156.94 392.932 156.94 393.232 156.94 393.531C156.542 394.73 155.245 395.929 153.75 396.029C152.254 396.129 150.858 395.03 150.559 393.831C150.459 393.531 150.559 393.232 150.659 393.032C150.759 392.832 151.058 392.732 151.257 392.832C151.756 392.932 152.154 393.431 152.553 393.731C153.849 395.33 154.049 396.728 154.149 396.628Z" fill="#263238"/>
<path d="M76.1752 219.594C73.8819 216.197 64.6091 402.823 65.2074 403.822L89.835 404.221L103.196 304.515L110.474 228.286L122.24 299.919L136.598 404.921L163.519 405.32L146.868 214.999L112.07 195.017L76.1752 219.594Z" fill="#263238"/>
<path d="M99.6061 94.2118C99.6061 94.2118 92.0284 95.5106 89.2365 98.0082C86.345 100.506 83.4535 106.3 83.4535 106.3L69.0957 116.091L81.7585 166.444L71.1896 236.079L73.2834 242.073L152.351 240.775L153.847 235.28L145.671 171.939L149.26 129.479L152.551 112.395L138.193 106.001C138.193 106.001 144.773 104.003 145.073 102.804C145.372 101.705 130.316 93.9121 130.316 93.9121C130.316 93.9121 106.486 89.9158 99.6061 94.2118Z" fill="#21BF73"/>
<g opacity="0.3">
<g opacity="0.3">
<path opacity="0.3" d="M75.6777 203.41C84.5517 214.999 96.8156 223.491 108.781 231.883C111.273 233.681 113.965 235.479 116.956 236.079C121.244 236.978 126.03 234.98 128.423 231.283C130.118 228.586 130.716 225.289 132.81 222.891C134.206 221.293 136.1 220.194 137.596 218.695C138.892 217.396 139.789 215.698 140.687 214.1C142.282 211.102 143.977 208.205 145.572 205.208C139.59 205.208 134.106 208.105 128.722 210.703C123.338 213.3 117.355 215.598 111.572 214.299C103.496 212.501 98.411 204.209 90.6338 201.311C85.7482 199.513 80.0648 200.013 75.6777 202.71" fill="black"/>
</g>
</g>
<path d="M69.0961 116.091C69.0961 116.091 66.1049 119.888 65.5066 127.78C64.9084 135.673 59.7236 177.234 61.5183 183.228C63.2134 189.223 85.3484 214.1 92.7267 213.5L95.5185 212.501L98.1109 214.499L109.876 205.608L83.8527 172.838L85.2486 125.682C85.2486 125.782 77.2721 114.293 69.0961 116.091Z" fill="#21BF73"/>
<path d="M89.236 98.1082C89.236 98.1082 89.0366 98.308 88.6378 98.6077C88.239 99.0073 87.6407 99.6068 87.0425 100.506C86.4442 101.405 85.7463 102.504 84.9486 103.903C84.151 105.202 83.1539 106.8 82.0571 108.498L81.8577 108.299C83.2536 107.699 85.0483 107.699 86.7434 108.299C88.4384 108.798 90.0337 109.797 91.629 110.996C94.8196 113.394 97.6114 116.691 100.403 120.487C105.987 128.08 111.371 137.471 116.556 147.862V147.961V148.061C116.456 152.158 116.356 156.454 116.157 160.849C115.559 183.129 114.961 203.31 114.562 217.896C114.362 225.189 114.163 231.084 114.063 235.18C113.963 237.178 113.963 238.776 113.864 239.875C113.864 240.375 113.864 240.775 113.764 241.074C113.764 241.374 113.764 241.474 113.764 241.474C113.764 241.474 113.764 241.374 113.764 241.074C113.764 240.775 113.764 240.375 113.764 239.875C113.764 238.776 113.764 237.178 113.864 235.18C113.963 231.084 114.063 225.189 114.263 217.896C114.661 203.31 115.06 183.129 115.758 160.749C115.858 156.354 116.057 152.058 116.157 147.961V148.061C110.972 137.671 105.588 128.28 100.104 120.687C97.3123 116.891 94.5205 113.594 91.4296 111.196C89.8343 109.997 88.239 109.098 86.6437 108.498C85.0483 107.999 83.3533 107.999 81.9574 108.498L81.5586 108.598L81.758 108.199C82.8548 106.5 83.8519 105.002 84.6495 103.703C85.4472 102.404 86.1451 101.205 86.7434 100.306C87.3416 99.4069 87.9398 98.8075 88.4384 98.5078C88.9369 98.2081 89.236 98.1082 89.236 98.1082Z" fill="#263238"/>
<path d="M142.382 104.103C142.382 104.202 140.886 104.602 138.493 105.601C136.1 106.6 132.81 108.099 129.719 110.497C126.628 112.894 124.135 115.492 122.44 117.39C121.643 118.289 120.945 118.989 120.346 119.688C119.848 120.187 119.549 120.487 119.549 120.487C119.549 120.487 119.748 120.088 120.247 119.588C120.646 118.989 121.344 118.189 122.241 117.19C123.936 115.192 126.329 112.495 129.52 110.097C132.71 107.699 136 106.201 138.493 105.301C139.69 104.902 140.687 104.602 141.385 104.402C141.983 104.103 142.382 104.103 142.382 104.103Z" fill="#263238"/>
<path d="M116.557 148.061C116.557 148.061 116.557 147.562 116.656 146.563C116.756 145.664 116.955 144.265 117.255 142.566C117.853 139.17 118.95 134.574 120.445 129.579C121.941 124.583 123.536 120.088 124.832 116.99C125.53 115.392 126.129 114.193 126.627 113.294C127.126 112.495 127.425 111.995 127.425 111.995C127.425 111.995 127.225 112.495 126.826 113.394C126.428 114.293 125.829 115.492 125.231 117.09C123.935 120.287 122.439 124.683 120.944 129.679C119.448 134.674 118.351 139.27 117.653 142.566C117.255 144.265 117.055 145.564 116.856 146.563C116.756 147.462 116.656 148.061 116.557 148.061Z" fill="#263238"/>
<path d="M119.049 120.188C118.949 120.088 120.744 116.091 123.137 111.196C125.53 106.301 127.524 102.404 127.624 102.404C127.723 102.504 125.929 106.5 123.536 111.396C121.242 116.291 119.149 120.188 119.049 120.188Z" fill="#263238"/>
<path d="M121.543 138.87L121.742 138.37C121.942 138.57 122.341 138.67 122.64 138.67C123.039 138.67 123.238 138.57 123.238 138.37C123.238 137.871 121.543 138.171 121.643 137.072C121.643 136.572 122.041 136.172 122.839 136.172C123.238 136.172 123.537 136.272 123.836 136.472L123.637 136.972C123.338 136.772 123.138 136.772 122.839 136.772C122.44 136.772 122.341 136.872 122.341 137.072C122.341 137.571 124.036 137.271 123.936 138.271C123.936 138.77 123.537 139.17 122.739 139.17C122.241 139.17 121.742 139.07 121.543 138.87Z" fill="white"/>
<path d="M126.528 138.67V139.17H124.334V136.272H126.528V136.772H125.032V137.371H126.328V137.871H125.032V138.57L126.528 138.67Z" fill="white"/>
<path d="M126.928 137.771C126.928 136.872 127.626 136.272 128.523 136.272C129.022 136.272 129.42 136.472 129.72 136.772L129.321 137.172C129.121 136.972 128.922 136.872 128.623 136.872C128.124 136.872 127.725 137.271 127.725 137.771C127.725 138.27 128.124 138.67 128.623 138.67C128.922 138.67 129.121 138.57 129.321 138.37L129.72 138.77C129.42 139.07 129.022 139.27 128.523 139.27C127.526 139.27 126.928 138.67 126.928 137.771Z" fill="white"/>
<path d="M132.211 138.47C132.211 138.37 132.111 138.171 132.111 138.071C132.111 137.971 132.012 137.871 132.012 137.771V138.071C132.012 138.57 131.812 138.87 131.413 138.87C131.015 138.87 130.815 138.67 130.815 138.071V136.472H130.117V138.071C130.117 138.87 130.616 139.369 131.413 139.369C131.912 139.369 132.211 139.17 132.51 138.87C132.311 138.77 132.211 138.57 132.211 138.47Z" fill="white"/>
<path d="M132.311 137.072V138.071V138.171C132.311 138.271 132.41 138.271 132.41 138.37C132.41 138.47 132.51 138.57 132.51 138.77C132.61 139.07 132.61 139.37 132.61 139.669C132.809 139.469 133.008 139.07 133.008 138.67V137.072H132.311Z" fill="white"/>
<path d="M135.402 140.069L134.904 139.27H134.305V140.069H133.607V137.172H134.804C135.602 137.172 136 137.571 136 138.271C136 138.67 135.801 138.97 135.402 139.17L136 140.069H135.402ZM134.804 137.671H134.305V138.67H134.804C135.203 138.67 135.402 138.47 135.402 138.171C135.402 137.871 135.203 137.671 134.804 137.671Z" fill="white"/>
<path d="M136.598 137.172H137.296V140.069H136.598V137.172Z" fill="white"/>
<path d="M138.593 137.771H137.695V137.271H140.188V137.771H139.291V140.069H138.593V137.771Z" fill="white"/>
<path d="M141.783 139.07V140.069H141.085V139.07L139.988 137.172H140.686L141.384 138.47L142.182 137.172H142.88L141.783 139.07Z" fill="white"/>
<path d="M134.704 146.563C134.704 146.563 134.505 146.263 134.306 145.764C134.106 145.264 133.807 144.565 133.508 143.566C132.91 141.767 132.212 139.07 131.813 136.173C131.414 133.175 131.414 130.478 131.613 128.58C131.713 127.581 131.813 126.781 131.913 126.282C132.012 125.782 132.112 125.483 132.112 125.483C132.212 125.483 132.112 126.681 132.012 128.58C131.913 130.478 132.012 133.175 132.411 136.073C132.81 138.97 133.408 141.567 133.907 143.466C134.306 145.364 134.704 146.563 134.704 146.563Z" fill="#263238"/>
<g opacity="0.3">
<g opacity="0.3">
<path opacity="0.3" d="M118.551 138.57C118.152 142.167 116.955 143.865 116.955 147.462C116.955 148.261 115.759 160.35 116.457 160.65C117.255 160.949 120.545 152.157 121.243 147.762C121.741 144.365 122.738 139.769 123.337 136.372C125.032 126.382 128.721 120.887 133.906 112.195C134.903 110.497 138.592 106.001 138.592 106.001C138.193 105.801 136.797 106.5 135.8 106.9C132.909 108.199 127.624 112.395 127.624 112.395C127.624 112.395 124.433 118.489 123.436 121.486C121.343 127.281 119.847 133.275 118.65 139.07" fill="black"/>
</g>
</g>
<g opacity="0.3">
<g opacity="0.3">
<path opacity="0.3" d="M85.6477 108.099C85.6477 108.099 82.457 109.897 82.457 111.296C82.457 112.694 83.5538 113.893 84.7503 114.593C85.9468 115.292 87.4424 115.592 88.7386 116.091C91.8295 117.29 94.4219 119.488 96.8149 121.886C100.703 125.782 104.093 130.078 106.885 134.774C109.179 138.67 111.372 142.966 115.261 145.264C112.569 140.468 109.877 135.873 107.184 131.177C104.492 126.482 101.501 121.886 98.0114 117.69C94.6213 113.594 88.938 108.498 85.6477 108.099Z" fill="black"/>
</g>
</g>
<path d="M74.1816 178.333C74.1816 178.333 74.1816 178.233 74.1816 178.033C74.1816 177.834 74.1816 177.634 74.1816 177.234C74.2813 176.535 74.4808 175.536 75.1787 174.537C75.8767 173.538 77.0731 172.339 78.7682 171.939C80.4632 171.539 82.557 171.839 84.2521 173.138L83.8532 173.338C83.6538 170.341 83.8532 166.844 84.4515 163.247C84.95 159.95 85.5483 156.853 85.9471 154.056C86.3459 151.258 86.4456 148.661 86.5453 146.463C86.645 144.265 86.645 142.567 86.5453 141.368C86.5453 140.768 86.5453 140.369 86.5453 139.969C86.5453 139.669 86.5453 139.469 86.5453 139.469C86.5453 139.469 86.5453 139.669 86.645 139.969C86.645 140.369 86.7447 140.768 86.7447 141.368C86.8445 142.567 86.9442 144.365 86.8444 146.563C86.8444 148.761 86.7447 151.358 86.3459 154.156C86.0468 157.053 85.4485 160.15 84.95 163.447C84.3518 166.944 84.1524 170.341 84.3518 173.438V173.937L83.9529 173.637C82.4573 172.339 80.3635 172.039 78.8679 172.439C77.2726 172.838 76.0761 173.837 75.4778 174.836C74.7799 175.835 74.5805 176.834 74.4808 177.434C74.1816 177.933 74.1816 178.333 74.1816 178.333Z" fill="#263238"/>
<path d="M76.6738 202.61C76.6738 202.61 76.7735 202.71 76.9729 202.91C77.1724 203.11 77.4715 203.41 77.8703 203.809C78.668 204.509 79.7647 205.607 81.3601 206.906C82.8557 208.105 84.8498 209.604 87.1431 211.002C88.3396 211.702 89.6358 212.401 91.0317 212.901C91.7296 213.2 92.5273 213.3 93.2252 213.2C94.0229 213.1 94.7208 212.801 95.3191 212.301L95.5185 212.101L95.7179 212.201C96.5156 212.801 97.4129 213.5 98.3103 214.199H98.0112C101.601 211.502 105.589 208.505 109.777 205.308V205.707C109.677 205.607 109.677 205.508 109.577 205.408C105.988 201.012 102.897 196.616 99.9056 192.62C97.0141 188.723 94.322 185.127 92.0287 182.229C89.7355 179.332 87.7413 177.034 86.3454 175.536C85.6475 174.736 85.0492 174.137 84.7501 173.837C84.3513 173.438 84.1519 173.238 84.1519 173.238C84.1519 173.238 84.3513 173.438 84.7501 173.737C85.1489 174.137 85.7472 174.636 86.4451 175.436C87.9407 176.934 89.9349 179.232 92.2281 182.03C94.6211 184.927 97.3132 188.424 100.205 192.32C103.196 196.216 106.387 200.612 109.876 205.008C109.976 205.108 109.976 205.208 110.076 205.308L110.275 205.508L110.076 205.707C105.888 208.804 101.9 211.802 98.3103 214.499L98.2106 214.599L98.1109 214.499C97.2135 213.8 96.3161 213.1 95.5185 212.401H95.8176C95.1196 213.1 94.322 213.4 93.4246 213.5C92.627 213.6 91.7296 213.4 91.0317 213.1C89.5361 212.501 88.3396 211.802 87.1431 211.102C84.7501 209.604 82.8557 208.205 81.3601 206.906C79.8645 205.607 78.7677 204.509 77.97 203.709C77.6709 203.31 77.3718 203.01 77.1724 202.81C76.7735 202.81 76.6738 202.71 76.6738 202.61Z" fill="#263238"/>
<path d="M86.1466 129.179C86.0469 129.179 85.6481 127.98 84.7507 126.282C84.2522 125.383 83.6539 124.384 82.8563 123.384C82.0586 122.385 81.0615 121.286 79.8651 120.387C78.6686 119.388 77.4721 118.689 76.3753 117.989C75.1788 117.39 74.1817 116.891 73.1847 116.591C71.2902 115.991 70.0938 115.792 70.0938 115.692C70.0938 115.692 70.3929 115.692 70.9911 115.692C71.5894 115.792 72.387 115.891 73.2844 116.191C74.2814 116.491 75.3782 116.891 76.5747 117.49C77.7712 118.089 78.9677 118.889 80.1642 119.888C81.3607 120.887 82.3577 121.986 83.1554 122.985C83.953 124.084 84.5513 125.083 85.0498 125.982C85.4487 126.881 85.8475 127.68 85.9472 128.18C86.1466 128.879 86.1466 129.179 86.1466 129.179Z" fill="#263238"/>
<g opacity="0.3">
<g opacity="0.3">
<path opacity="0.3" d="M133.707 144.065C134.006 144.764 135.203 144.365 135.303 143.765C135.402 143.166 135.203 142.666 134.904 142.167C133.009 138.57 131.913 134.674 131.613 130.578C131.414 135.473 131.913 139.469 133.707 144.065Z" fill="black"/>
</g>
</g>
<g opacity="0.3">
<g opacity="0.3">
<path opacity="0.3" d="M73.7816 177.234C72.8842 174.437 74.1804 171.14 76.7728 169.741C77.4707 169.341 78.1687 169.142 78.8666 169.142C80.462 169.242 81.6585 170.74 82.5558 172.039C80.7611 171.539 78.7669 171.739 77.1716 172.738C75.5763 173.737 74.3798 175.336 74.0807 177.234" fill="black"/>
</g>
</g>
<path d="M151.653 116.891C151.753 116.891 151.154 117.89 150.257 119.488C149.459 121.087 148.363 123.285 147.565 125.882C146.767 128.48 146.269 130.877 145.97 132.676C145.671 134.474 145.671 135.573 145.571 135.573C145.471 135.573 145.471 134.474 145.571 132.676C145.77 130.877 146.169 128.38 146.967 125.782C147.864 123.185 148.961 120.887 149.858 119.388C150.855 117.69 151.553 116.791 151.653 116.891Z" fill="#263238"/>
<g opacity="0.3">
<g opacity="0.3">
<path opacity="0.3" d="M145.074 142.167C144.575 142.766 144.376 147.362 144.376 147.362C144.376 152.957 144.774 155.454 144.774 161.049C144.774 163.347 144.774 165.745 144.176 167.943C143.877 169.142 143.379 170.241 142.88 171.34C142.282 172.738 141.584 174.237 140.686 175.436C139.889 176.535 138.991 177.434 138.094 178.333C133.707 182.729 129.619 187.524 126.03 192.72L123.836 195.917L145.572 175.436L146.669 172.738L146.769 172.439L145.074 142.167Z" fill="black"/>
</g>
</g>
<path d="M152.551 112.495C152.551 112.495 155.941 113.793 157.736 121.486C159.829 130.378 162.522 145.064 162.92 150.659C163.319 155.354 167.906 172.438 164.316 180.031C160.727 187.524 143.577 210.902 136.797 211.602L134.005 210.902L131.014 211.402L122.639 201.811L123.337 199.014C123.337 199.014 122.439 197.515 123.337 196.116C124.334 194.718 145.571 174.736 145.571 174.736C145.571 174.736 144.774 174.636 144.574 173.238C144.275 170.84 146.369 170.94 146.369 170.94L144.973 149.96L152.551 112.495Z" fill="#21BF73"/>
<path d="M153.848 177.134C153.748 177.234 152.153 176.135 149.959 175.436C147.766 174.736 145.771 174.736 145.771 174.537C145.771 174.437 147.766 174.137 150.059 174.936C152.452 175.635 153.947 177.034 153.848 177.134Z" fill="#263238"/>
<path d="M158.135 173.937C158.035 174.037 155.941 172.039 152.651 171.24C149.36 170.34 146.568 171.04 146.469 170.84C146.469 170.74 147.167 170.54 148.263 170.34C149.36 170.241 151.055 170.241 152.75 170.64C154.445 171.14 155.841 171.939 156.838 172.638C157.736 173.338 158.135 173.937 158.135 173.937Z" fill="#263238"/>
<path d="M145.771 174.537C145.771 174.537 145.373 174.537 144.974 174.237C144.774 174.037 144.575 173.837 144.376 173.438C144.276 173.038 144.276 172.638 144.376 172.239C144.475 171.939 144.575 171.739 144.675 171.539V171.639C144.974 170.94 145.672 170.74 145.971 170.74C146.37 170.74 146.569 170.84 146.569 170.84C146.569 170.94 146.37 170.94 146.071 171.04C145.771 171.14 145.273 171.34 145.173 171.739C145.074 171.939 144.974 172.139 144.974 172.339C144.774 173.038 144.974 173.637 145.273 173.937C145.572 174.337 145.871 174.437 145.771 174.537Z" fill="#263238"/>
<path d="M144.874 141.168C144.874 141.168 144.973 141.567 145.073 142.367C145.173 143.166 145.272 144.165 145.372 145.564C145.572 148.261 145.771 151.958 145.97 156.054C146.17 160.15 146.27 163.747 146.369 166.544C146.469 167.843 146.469 168.842 146.469 169.741C146.469 170.54 146.469 170.94 146.469 170.94C146.469 170.94 146.369 170.54 146.27 169.741C146.17 168.942 146.07 167.943 145.97 166.544C145.771 163.846 145.572 160.15 145.372 156.054C145.173 152.058 145.073 148.361 144.973 145.564C144.874 144.265 144.874 143.266 144.874 142.367C144.774 141.567 144.774 141.168 144.874 141.168Z" fill="#263238"/>
<path d="M146.17 174.437C146.17 174.437 145.971 174.636 145.672 174.936C145.273 175.336 144.774 175.735 144.076 176.335C142.68 177.634 140.686 179.432 138.293 181.63C135.801 183.928 132.909 186.625 129.718 189.822C128.123 191.421 126.428 193.019 124.733 194.818C124.334 195.217 123.935 195.717 123.636 196.216C123.337 196.716 123.337 197.315 123.437 197.915C123.537 198.514 123.736 199.113 123.736 199.913C123.736 200.612 123.437 201.411 122.639 201.811L122.739 201.411C124.135 203.01 125.531 204.608 127.026 206.307C128.422 207.905 129.918 209.604 131.214 211.102L131.015 211.002C132.012 210.803 133.009 210.703 134.006 210.503C135.302 210.703 136.399 211.302 137.496 211.102C138.592 211.002 139.589 210.403 140.487 209.704C142.282 208.305 143.777 206.706 145.273 205.208C148.164 202.211 150.458 199.313 152.352 196.916C154.246 194.518 155.742 192.52 156.839 191.221C157.337 190.621 157.736 190.122 158.035 189.722C158.334 189.423 158.434 189.223 158.434 189.223C158.434 189.223 158.334 189.423 158.035 189.822C157.736 190.222 157.337 190.721 156.939 191.421C155.941 192.819 154.446 194.818 152.551 197.215C150.657 199.613 148.364 202.51 145.472 205.607C144.076 207.106 142.481 208.704 140.686 210.103C139.789 210.803 138.692 211.402 137.396 211.602C136.1 211.802 134.903 211.202 133.806 211.002H133.906C132.909 211.202 131.912 211.302 130.915 211.502H130.815L130.716 211.402C129.32 209.803 127.924 208.205 126.528 206.606C125.032 204.908 123.636 203.21 122.24 201.711L122.041 201.411L122.34 201.311C122.839 201.112 123.038 200.512 123.038 199.913C123.038 199.313 122.839 198.714 122.739 198.015C122.639 197.415 122.639 196.616 122.938 196.016C123.238 195.417 123.636 194.917 124.135 194.418C125.93 192.62 127.525 191.021 129.22 189.423C132.411 186.325 135.402 183.628 137.894 181.33C140.387 179.132 142.381 177.334 143.877 176.135C144.575 175.536 145.073 175.136 145.472 174.736C145.971 174.537 146.17 174.337 146.17 174.437Z" fill="#263238"/>
<path d="M145.671 162.348C145.671 162.448 132.111 162.448 115.36 162.148C98.609 161.948 85.0488 161.549 85.0488 161.449C85.0488 161.349 98.609 161.349 115.36 161.649C132.111 161.948 145.671 162.248 145.671 162.348Z" fill="#263238"/>
<path d="M130.017 170.64C130.017 170.64 130.017 170.74 130.017 171.04C130.017 171.24 129.918 171.639 129.818 172.139C129.618 173.038 129.22 174.437 128.621 176.035C127.325 179.232 124.733 183.428 120.445 186.525C116.158 189.622 111.372 190.821 107.982 191.021C106.287 191.121 104.891 191.021 103.894 190.921C103.396 190.921 103.096 190.821 102.797 190.721C102.598 190.721 102.398 190.622 102.398 190.622C102.398 190.522 104.492 190.921 107.882 190.622C111.272 190.322 115.959 189.123 120.146 186.126C124.334 183.129 127.026 179.032 128.322 175.935C129.718 172.738 129.918 170.64 130.017 170.64Z" fill="#263238"/>
<path d="M101.003 212.401C100.904 212.501 100.305 212.201 99.8068 211.602C99.3082 211.002 99.1088 210.403 99.2085 210.303C99.3082 210.203 99.7071 210.703 100.206 211.202C100.704 211.802 101.003 212.301 101.003 212.401Z" fill="#263238"/>
<path d="M104.792 209.404C104.692 209.504 104.293 209.104 103.794 208.505C103.396 207.905 103.096 207.406 103.296 207.306C103.396 207.206 103.794 207.606 104.293 208.205C104.592 208.804 104.891 209.304 104.792 209.404Z" fill="#263238"/>
<path d="M126.826 201.411C126.926 201.511 126.327 201.911 125.629 202.411C124.931 202.91 124.333 203.21 124.233 203.11C124.134 203.01 124.632 202.411 125.33 201.911C126.028 201.511 126.726 201.312 126.826 201.411Z" fill="#263238"/>
<path d="M129.619 204.209C129.719 204.309 129.42 205.008 128.622 205.707C127.924 206.407 127.126 206.706 127.027 206.606C126.927 206.507 127.525 206.007 128.223 205.308C129.021 204.708 129.519 204.109 129.619 204.209Z" fill="#263238"/>
<path d="M132.31 207.506C132.41 207.606 132.011 208.205 131.214 208.805C130.516 209.404 129.718 209.704 129.718 209.504C129.618 209.404 130.216 208.904 130.914 208.305C131.712 207.905 132.211 207.406 132.31 207.506Z" fill="#263238"/>
<path d="M93.7237 101.205C93.8234 101.105 95.0199 104.103 97.1137 107.499C99.1079 110.896 101.202 113.394 101.102 113.494C101.002 113.494 100.504 112.994 99.6064 111.995C98.8088 110.996 97.712 109.498 96.7149 107.799C95.7178 106.101 94.9202 104.402 94.4216 103.203C93.8234 102.005 93.624 101.205 93.7237 101.205Z" fill="#263238"/>
<path d="M153.847 235.38C153.847 235.38 153.548 235.38 153.049 235.38C152.451 235.38 151.653 235.38 150.656 235.38C148.463 235.38 145.471 235.38 141.782 235.479C134.304 235.579 123.935 235.879 112.468 236.179C101.002 236.479 90.6324 236.778 83.1544 236.778C79.3655 236.778 76.3743 236.778 74.2805 236.678C73.2834 236.678 72.4857 236.578 71.8875 236.578C71.2893 236.578 71.0898 236.578 71.0898 236.479C71.0898 236.479 71.389 236.479 71.8875 236.479C72.4857 236.479 73.2834 236.479 74.2805 236.479C76.474 236.479 79.4652 236.479 83.1544 236.379C90.6324 236.279 101.002 235.979 112.468 235.679C123.935 235.38 134.304 235.08 141.782 235.08C145.571 235.08 148.562 235.08 150.656 235.18C151.653 235.18 152.451 235.28 153.049 235.28C153.548 235.38 153.847 235.38 153.847 235.38Z" fill="#263238"/>
<path d="M133.208 102.804C133.108 102.904 131.912 101.505 129.918 100.306C128.023 99.1072 126.229 98.6076 126.229 98.5077C126.229 98.4078 128.123 98.6076 130.117 99.9064C132.211 101.105 133.308 102.704 133.208 102.804Z" fill="#21BF73"/>
<path d="M126.728 213.2C127.127 213.9 128.024 214.199 128.822 214.199C129.62 214.199 130.417 213.9 131.215 213.9C132.013 213.9 132.91 214.099 133.309 214.799C133.608 215.398 133.608 216.098 133.209 216.597C132.91 217.197 132.411 217.596 131.813 217.896C129.121 219.494 125.532 219.095 123.238 217.097" fill="#B78876"/>
<path d="M108.48 225.589C110.873 227.887 113.366 230.085 116.158 231.883C116.756 232.283 117.454 232.682 118.152 232.582C118.85 232.482 119.448 231.483 118.95 230.984C119.648 231.583 120.844 231.583 121.642 231.084C122.34 230.584 122.739 229.585 122.439 228.686C122.439 228.586 122.439 228.586 122.539 228.586C123.237 228.886 124.135 228.886 124.733 228.386C125.431 227.987 125.83 227.087 125.53 226.288C126.228 227.287 128.023 226.888 128.621 225.789C129.22 224.69 128.821 223.291 128.023 222.292C127.225 221.293 126.228 220.593 125.231 219.794C124.234 218.995 123.337 217.996 123.137 216.797" fill="#B78876"/>
<path d="M119.349 231.383C119.249 231.483 117.953 230.984 116.757 229.685C115.56 228.386 114.962 227.087 115.062 226.987C115.161 226.888 115.959 228.086 117.056 229.285C118.252 230.484 119.349 231.283 119.349 231.383Z" fill="#AA6550"/>
<path d="M123.037 229.085C122.937 229.185 121.84 228.586 120.644 227.487C119.547 226.388 118.849 225.189 118.949 225.089C119.049 224.989 119.846 225.988 120.943 227.087C122.14 228.186 123.137 228.886 123.037 229.085Z" fill="#AA6550"/>
<path d="M126.329 226.788C126.229 226.888 125.133 226.288 124.036 225.289C122.939 224.19 122.341 223.091 122.44 223.091C122.54 222.991 123.338 223.89 124.435 224.989C125.432 225.888 126.329 226.588 126.329 226.788Z" fill="#AA6550"/>
<path d="M101.901 203.01C101.901 203.01 101.602 201.711 104.892 202.111C108.182 202.51 109.678 202.81 113.267 202.61C116.956 202.41 122.939 201.411 122.939 201.411L132.511 209.903C132.511 209.903 122.739 218.595 119.748 220.094C116.857 221.592 110.874 225.489 107.385 225.289C104.792 225.189 104.593 223.89 104.593 223.89C104.593 223.89 102.1 222.192 102.399 221.293C102.399 221.293 99.408 221.093 100.006 218.795C100.006 218.795 97.9124 218.395 97.5136 217.197C97.2144 215.998 98.8097 214.499 99.408 213.9C100.405 212.901 109.179 206.507 109.179 206.307C109.179 206.307 101.801 205.607 101.901 203.01Z" fill="#B78876"/>
<path d="M108.082 212.401C108.182 212.501 106.387 214 104.194 215.798C101.9 217.496 100.006 218.895 99.9063 218.795C99.8066 218.695 101.601 217.197 103.795 215.398C106.088 213.6 107.983 212.301 108.082 212.401Z" fill="#AA6550"/>
<path d="M112.669 213.3C112.769 213.3 112.27 214 111.473 214.899C110.675 215.798 109.478 216.997 108.082 218.096C106.587 219.195 105.191 220.094 104.194 220.593C103.097 221.093 102.399 221.393 102.399 221.293C102.299 221.193 104.992 219.894 107.783 217.596C110.675 215.398 112.569 213.2 112.669 213.3Z" fill="#AA6550"/>
<path d="M116.856 216.297C116.856 216.297 116.457 217.097 115.56 218.096C114.662 219.095 113.267 220.394 111.472 221.493C109.677 222.592 107.882 223.191 106.586 223.591C105.29 223.89 104.393 223.99 104.393 223.89C104.393 223.691 107.683 223.191 111.173 221.093C114.662 218.795 116.756 216.098 116.856 216.297Z" fill="#AA6550"/>
<path d="M128.522 213.5C128.522 213.5 128.323 213.8 127.825 214.299C127.326 214.799 126.628 215.398 125.631 216.098C123.737 217.596 121.144 219.594 117.954 221.393C116.358 222.292 114.863 223.091 113.467 223.79C112.071 224.49 110.675 224.989 109.478 225.289C108.282 225.589 107.285 225.489 106.587 225.289C105.889 225.089 105.59 224.889 105.59 224.889C105.59 224.789 106.986 225.589 109.379 224.989C110.475 224.69 111.772 224.19 113.168 223.491C114.563 222.791 116.059 221.992 117.654 221.093C120.745 219.295 123.437 217.396 125.332 215.898C127.426 214.399 128.522 213.4 128.522 213.5Z" fill="#AA6550"/>
<path d="M110.975 45.5574C101.403 44.6582 92.9276 51.8515 92.2297 61.4425C91.6314 69.435 91.0332 78.1269 91.0332 82.5228C91.0332 91.914 100.306 93.5125 100.306 93.5125C100.306 93.5125 100.007 96.3098 99.7077 99.7067C99.1095 106.6 104.294 112.694 111.274 113.094C118.054 113.494 123.937 108.299 124.335 101.505L126.529 63.7404C127.127 54.4491 120.247 46.3566 110.975 45.5574Z" fill="#B78876"/>
<path d="M100.307 93.3127C100.307 93.3127 106.19 93.9121 112.571 90.0157C112.571 90.0157 109.48 96.8094 100.107 95.8103L100.307 93.3127Z" fill="#AA6550"/>
<path d="M125.731 66.9373C125.93 66.8374 132.212 65.139 131.913 71.533C131.614 77.927 125.232 76.3285 125.232 76.1287C125.232 75.9289 125.731 66.9373 125.731 66.9373Z" fill="#B78876"/>
<path d="M127.227 73.8308C127.227 73.8308 127.326 73.9307 127.526 74.0306C127.725 74.1306 128.024 74.2305 128.323 74.1306C129.021 73.9307 129.62 72.8318 129.719 71.7328C129.719 71.1334 129.62 70.6338 129.52 70.1343C129.32 69.6348 129.021 69.3351 128.722 69.2351C128.423 69.1352 128.124 69.335 128.024 69.5349C127.925 69.7347 127.925 69.8346 127.925 69.8346C127.925 69.8346 127.825 69.7347 127.825 69.435C127.825 69.3351 127.925 69.1352 128.124 69.0353C128.323 68.9354 128.523 68.8355 128.722 68.9354C129.221 69.0353 129.62 69.435 129.819 69.9345C130.018 70.434 130.218 71.1334 130.118 71.7328C130.018 73.0316 129.32 74.2305 128.323 74.4303C127.825 74.5302 127.526 74.3304 127.326 74.2305C127.227 73.9307 127.227 73.8308 127.227 73.8308Z" fill="#AA6550"/>
<path d="M95.8184 66.5377C95.8184 67.2371 96.3169 67.8365 97.1146 67.9364C97.8125 68.0363 98.5105 67.4369 98.5105 66.7376C98.5105 66.0382 98.0119 65.4388 97.2143 65.3389C96.5163 65.3389 95.9181 65.8384 95.8184 66.5377Z" fill="#263238"/>
<path d="M94.6226 64.8393C94.822 65.0391 95.8191 64.2399 97.215 64.3398C98.6109 64.3398 99.7077 65.139 99.8074 64.9392C99.9071 64.8393 99.7077 64.5396 99.3089 64.2399C98.91 63.9402 98.1124 63.5405 97.215 63.5405C96.3177 63.5405 95.52 63.8402 95.1212 64.14C94.6226 64.4397 94.5229 64.7394 94.6226 64.8393Z" fill="#263238"/>
<path d="M110.277 66.9374C110.277 67.6367 110.776 68.2362 111.574 68.3361C112.271 68.436 112.969 67.8366 112.969 67.1372C112.969 66.4379 112.471 65.8384 111.673 65.7385C110.876 65.7385 110.277 66.2381 110.277 66.9374Z" fill="#263238"/>
<path d="M108.682 65.239C108.881 65.4388 109.878 64.6395 111.274 64.7394C112.67 64.7394 113.767 65.5387 113.866 65.3389C113.966 65.239 113.767 64.9392 113.368 64.6395C112.969 64.3398 112.171 63.9402 111.274 63.9402C110.377 63.9402 109.579 64.2399 109.18 64.5396C108.781 64.8393 108.582 65.239 108.682 65.239Z" fill="#263238"/>
<path d="M103.297 75.929C103.297 75.8291 102.4 75.7291 101.004 75.4294C100.605 75.4294 100.306 75.3295 100.206 75.0298C100.106 74.7301 100.306 74.3305 100.505 73.9308C100.904 73.0317 101.203 72.1325 101.602 71.1335C103.197 67.1372 104.294 63.9402 104.194 63.8403C103.995 63.7404 102.599 66.9374 101.104 70.9336C100.705 71.9327 100.406 72.8319 100.007 73.731C99.907 74.1307 99.6079 74.6302 99.8073 75.1297C99.907 75.4294 100.206 75.6292 100.406 75.6292C100.605 75.7291 100.804 75.7292 101.004 75.7292C102.4 75.929 103.297 75.929 103.297 75.929Z" fill="#263238"/>
<path d="M107.087 60.0438C107.286 60.4434 108.682 60.1437 110.377 60.2436C112.072 60.3435 113.468 60.7431 113.668 60.3435C113.767 60.1437 113.468 59.844 112.97 59.4443C112.372 59.1446 111.474 58.8449 110.477 58.745C109.48 58.745 108.583 58.9448 107.984 59.2445C107.286 59.5442 106.987 59.844 107.087 60.0438Z" fill="#263238"/>
<path d="M94.0246 59.5443C94.224 59.844 95.221 59.5443 96.4175 59.5443C97.614 59.5443 98.6111 59.844 98.8105 59.4443C98.9102 59.2445 98.8105 58.9448 98.312 58.6451C97.9131 58.3454 97.1155 58.0457 96.3178 58.0457C95.5202 58.0457 94.8222 58.3454 94.3237 58.6451C94.1243 59.0447 93.9249 59.3444 94.0246 59.5443Z" fill="#263238"/>
<path d="M126.43 66.6376C126.53 67.6367 126.43 68.7356 126.231 69.7347C126.031 70.7338 125.433 71.6329 124.536 72.0326C122.94 72.8318 120.946 71.533 120.248 69.9345C119.55 68.2361 119.75 66.4378 119.949 64.6395C120.248 62.2417 120.348 59.7441 119.949 57.3463C119.55 54.9486 118.453 52.5508 116.559 51.0522C114.665 49.4537 111.873 48.9542 109.679 49.9532C108.283 50.5527 107.286 51.7516 105.99 52.5508C104.794 53.2501 103.497 53.7497 102.102 53.45C100.805 53.2502 98.9109 52.2511 99.21 50.9523C99.7085 47.8552 97.6147 50.4528 97.7144 49.9532C97.9138 49.0541 99.7085 47.5555 100.506 46.956C101.902 45.957 103.298 45.4575 104.794 45.1577C108.882 44.4584 113.169 44.9579 116.958 46.5564C120.747 48.1549 124.137 51.0522 125.632 54.8487C127.427 59.2445 127.128 61.942 126.53 66.7375" fill="#263238"/>
<path d="M106.388 80.125C106.388 80.4247 105.192 80.7244 103.696 80.8243C102.2 80.9242 101.004 80.7244 101.004 80.4247C101.004 80.125 102.2 79.8252 103.696 79.7253C105.192 79.7253 106.388 79.8252 106.388 80.125Z" fill="#263238"/>
<path d="M126.429 67.2371C126.429 67.337 125.631 67.1372 124.435 66.8375C123.239 66.4378 121.643 65.8384 119.948 65.1391C118.353 64.4397 116.857 63.8403 115.461 63.3407C114.365 62.9411 113.567 62.6414 113.667 62.5415C113.667 62.4416 114.464 62.6414 115.661 62.9411C116.857 63.3407 118.453 63.9402 120.148 64.6395C121.743 65.3389 123.238 65.9383 124.634 66.4378C125.731 66.9374 126.429 67.1372 126.429 67.2371Z" fill="#263238"/>
<path d="M99.8069 61.7422C100.704 61.8421 101.402 62.4415 101.502 63.3407C101.801 65.0391 101.502 66.7375 100.704 68.336C99.7072 70.2343 97.8127 71.7328 95.7189 72.3323C94.5224 72.632 93.1265 72.632 92.0297 72.0326C90.5341 71.1334 90.0356 69.1353 89.9359 67.337C89.8362 66.0382 89.8362 64.6395 90.5341 63.6404C91.4315 62.2417 93.2262 61.7422 94.8215 61.6423C96.5165 61.4425 99.8069 61.7422 99.8069 61.7422Z" fill="#263238"/>
<path d="M107.284 61.942C106.387 62.0419 105.689 62.6413 105.589 63.5405C105.29 65.2389 105.489 67.0372 106.287 68.5358C107.284 70.5339 109.079 72.0325 111.272 72.7319C112.469 73.1315 113.865 73.1315 114.962 72.532C116.457 71.6329 117.055 69.6347 117.155 67.9363C117.255 66.6376 117.255 65.2389 116.657 64.1399C115.759 62.7412 114.064 62.1418 112.369 62.0419C110.674 61.7421 107.284 61.942 107.284 61.942Z" fill="#263238"/>
<path d="M108.88 62.2417C108.88 62.3416 106.387 62.4415 103.396 62.4415C100.405 62.3416 97.9121 62.2417 97.9121 62.0419C97.9121 61.9419 100.405 61.842 103.396 61.842C106.387 61.842 108.88 62.0419 108.88 62.2417Z" fill="#263238"/>
<path d="M126.029 104.702C126.029 104.702 126.029 104.602 126.029 104.502C126.029 104.402 126.029 104.202 126.029 104.003C126.029 103.603 126.328 103.004 126.628 102.304C127.026 101.605 127.425 100.806 127.724 99.8066C128.023 98.8075 128.123 97.6086 128.123 96.21C128.123 94.8113 127.924 93.4126 127.824 91.8141C127.824 91.4144 127.824 90.9149 128.123 90.5153C128.323 90.1157 128.821 89.716 129.419 89.9158C129.718 90.0158 129.918 90.1157 130.018 90.4154C130.217 90.6152 130.217 91.0148 130.018 91.3145C129.619 91.8141 129.02 91.8141 128.522 91.6143C127.625 91.2146 127.026 90.0158 127.325 89.0167C127.425 88.5172 127.724 88.0176 128.223 87.7179C128.422 87.5181 128.721 87.4182 129.02 87.4182C129.32 87.4182 129.619 87.4182 129.918 87.7179C130.117 87.9177 130.317 88.3173 130.117 88.717C129.918 89.1166 129.519 89.2165 129.32 89.2165C128.721 89.2165 128.123 89.0167 127.824 88.5172C127.425 88.1175 127.226 87.5181 127.325 86.9187C127.425 86.3192 127.824 85.8197 128.323 85.52C128.721 85.2202 129.22 85.1203 129.718 85.2203C130.018 85.3202 130.217 85.4201 130.416 85.6199C130.616 85.8197 130.716 86.1194 130.616 86.4191C130.516 86.7188 130.217 86.9187 130.018 87.0186C129.718 87.1185 129.519 87.1185 129.32 87.1185C128.821 87.0186 128.422 86.8187 128.023 86.519C127.325 85.9196 126.827 84.9205 127.226 84.0214C127.525 83.2221 128.422 82.5228 129.419 82.7226C129.818 82.8225 130.317 83.1222 130.416 83.7217C130.416 84.0214 130.317 84.2212 130.117 84.421C129.918 84.6208 129.718 84.7207 129.519 84.7207C129.02 84.7207 128.622 84.5209 128.323 84.3211C128.023 84.1213 127.724 83.8216 127.625 83.4219C127.226 82.7226 127.425 81.7235 128.123 81.3239C128.821 80.8244 129.818 81.224 130.018 82.0232V82.1231L129.918 82.2231C128.921 82.7226 127.824 82.2231 127.525 81.3239C127.325 80.9243 127.425 80.4247 127.625 80.0251C127.824 79.6255 128.123 79.4257 128.522 79.2259C128.921 79.0261 129.32 79.0261 129.619 79.2259C129.918 79.3258 130.317 79.7254 130.217 80.125C130.217 80.3248 130.018 80.5246 129.818 80.5246C129.619 80.6246 129.419 80.5246 129.32 80.5246C129.021 80.4247 128.821 80.0251 128.821 79.8253C128.622 78.8262 128.721 78.027 128.821 77.4276C128.921 76.928 129.02 76.6283 129.02 76.6283C129.12 76.6283 128.721 77.8272 129.12 79.7254C129.22 79.9252 129.32 80.125 129.519 80.2249C129.718 80.3248 130.018 80.2249 130.018 80.0251C130.117 79.5256 129.32 79.2259 128.721 79.5256C128.123 79.7254 127.625 80.5246 127.924 81.1241C128.123 81.7235 129.12 82.2231 129.818 81.8234L129.718 82.0232C129.619 81.5237 128.921 81.224 128.522 81.6236C128.023 81.9233 127.924 82.6227 128.223 83.2221C128.522 83.7217 129.12 84.3211 129.718 84.3211C130.018 84.3211 130.217 84.1213 130.217 83.8216C130.217 83.6217 129.918 83.322 129.619 83.322C129.021 83.1222 128.323 83.6217 128.023 84.3211C127.724 84.9205 128.123 85.7198 128.721 86.2193C129.021 86.4191 129.419 86.6189 129.718 86.6189C130.018 86.7188 130.416 86.519 130.516 86.3192C130.616 86.1194 130.317 85.8197 130.018 85.7198C129.718 85.6199 129.32 85.7198 129.02 85.9196C128.622 86.1194 128.323 86.519 128.323 87.0186C128.223 87.4182 128.422 87.9177 128.721 88.2174C129.021 88.5172 129.419 88.717 129.818 88.717C130.217 88.717 130.317 88.4172 130.117 88.1175C129.918 87.9177 129.419 87.9177 129.12 88.2174C128.821 88.4173 128.522 88.8169 128.422 89.2165C128.223 90.0158 128.622 90.9149 129.32 91.2146C129.619 91.3145 130.117 91.3145 130.217 91.1147C130.416 90.9149 130.217 90.5153 129.818 90.4154C129.519 90.3155 129.22 90.5153 129.02 90.815C128.821 91.1147 128.721 91.5144 128.721 91.8141C128.821 93.4126 128.921 94.9112 128.921 96.3099C128.921 97.7085 128.721 98.9074 128.422 100.006C128.123 101.105 127.625 101.905 127.226 102.504C126.827 103.103 126.628 103.703 126.528 104.103C126.029 104.502 126.029 104.702 126.029 104.702Z" fill="#E0E0E0"/>
<path d="M129.719 74.0307C129.619 73.5312 129.519 73.0317 129.32 72.632C129.021 72.2324 128.622 71.9327 128.123 71.8328C127.625 71.7329 127.027 72.1325 126.827 72.632C126.628 73.1316 126.927 73.731 127.326 74.0307L127.425 74.1306C127.625 74.2305 127.824 74.2305 128.024 74.3305C128.323 74.5303 128.522 75.0298 128.422 75.4294C128.422 75.8291 128.323 76.2287 128.323 76.6283C128.323 76.928 128.522 77.2277 128.821 77.2277C129.12 77.2277 129.22 77.0279 129.32 76.7282C129.818 76.0289 129.818 75.0298 129.719 74.0307Z" fill="#E0E0E0"/>
<path d="M100.206 94.9111C100.206 94.9111 98.2118 97.8084 98.0124 99.8065C97.9127 101.105 98.7104 106.001 99.3086 109.198C99.6077 110.996 100.405 112.794 101.402 114.293L102.699 116.191C104.593 118.989 106.188 121.886 107.385 124.983C109.878 131.377 114.165 142.167 114.265 142.666C114.464 143.366 116.159 146.463 116.159 146.463L118.452 119.488L125.232 106.001C125.831 104.802 126.13 103.503 126.23 102.204L126.429 97.9083C126.529 96.3098 125.93 94.8112 124.834 93.6123L124.535 97.5087L113.268 107.699L100.206 98.9073V94.9111Z" fill="white"/>
<path d="M112.669 107.899C112.769 107.999 111.373 108.398 110.276 110.097C109.179 111.795 108.282 114.493 107.584 117.59C107.484 117.89 107.384 118.189 107.384 118.489L107.285 118.889L106.986 118.589C104.692 116.691 102.997 114.693 101.701 113.294C100.405 111.895 99.707 110.996 99.707 110.996C99.707 110.996 100.604 111.695 101.901 113.094C103.197 114.393 104.992 116.391 107.285 118.189L106.886 118.289C106.986 117.989 106.986 117.69 107.085 117.39C107.783 114.293 108.78 111.595 109.977 109.897C110.575 108.998 111.273 108.498 111.772 108.199C112.37 107.999 112.669 107.899 112.669 107.899Z" fill="#263238"/>
<path d="M120.745 115.192C120.845 115.292 119.748 116.891 118.252 119.288L117.854 119.888V119.088C117.854 117.99 117.555 116.791 117.156 115.392C116.557 113.094 115.959 110.996 115.162 109.697C114.364 108.399 113.467 107.899 113.566 107.799C113.566 107.799 113.766 107.899 114.164 108.099C114.563 108.399 114.962 108.798 115.461 109.497C116.458 110.796 117.056 112.894 117.654 115.192C118.053 116.491 118.352 117.79 118.352 118.989L117.953 118.889C119.449 116.691 120.645 115.092 120.745 115.192Z" fill="#263238"/>
<path d="M115.561 144.665C115.461 144.665 114.763 136.472 114.165 126.382C113.566 116.291 113.068 108.099 113.267 108.099C113.367 108.099 114.065 116.291 114.663 126.382C115.261 136.472 115.66 144.665 115.561 144.665Z" fill="#263238"/>
<path d="M90.4349 67.237C90.3352 67.3369 89.8367 66.2379 90.3352 64.9391C90.7341 63.6404 91.7311 63.0409 91.8308 63.1408C91.9305 63.2407 91.2326 63.9401 90.8338 65.139C90.4349 66.2379 90.5347 67.237 90.4349 67.237Z" fill="#E0E0E0"/>
<path d="M106.886 67.8364C106.786 67.9363 106.088 67.0372 106.088 65.8383C106.088 64.5395 106.786 63.7403 106.886 63.8402C106.985 63.9401 106.586 64.7393 106.686 65.8383C106.586 66.9373 106.985 67.7365 106.886 67.8364Z" fill="#E0E0E0"/>
</g>
<defs>
<clipPath id="clip0">
<rect width="681" height="427" fill="white"/>
</clipPath>
</defs>
</svg>
